-2.291430603266849442e+00
-9.530429173087784367e-02
2.653640696494151685e-01
4.541506707576458690e-01
3.359157980300756519e-01
2.874938481816177727e-01
3.131887046042740042e-01
2.162054381734720976e-01
2.907979927117433361e-01
2.089880011934206472e-01
3.765343233436144743e-01
2.710585862636071264e-01
2.629156449485078317e-01
2.035055687875423347e-01
3.304695726565571867e-01
2.049107657306495356e-01
3.219072163653966534e-01
1.555568387849509682e-01
4.316898709495832764e-01
1.916297633666999012e-01
2.092276957931809567e-01
2.636205695715425623e-01
3.443699377734016909e-01
3.354646260460676932e-01
2.507518014605682466e-01
2.537562771783447024e-01
2.287087984413581632e-01
2.375717337821335318e-01
3.133381850333412100e-01
6.215210145677330100e-02
2.016877330437635840e-01
2.367009445449146932e-01
1.565389798137311050e-01
2.508650748555665277e-01
2.529119858211900662e-01
2.579103767291672789e-01
1.026296418457202098e-01
3.400485576888608863e-01
2.488804642652305277e-01
1.546401333657132504e-01
2.851823629291251883e-01
3.536297345522430580e-01
1.756625633051304147e-01
2.485053472741159952e-01
4.473495135077567575e-01
2.923376006750639244e-01
3.219189482492615384e-01
2.630847459492237639e-01
2.226998470156679177e-01
3.190663802545657401e-01
1.676187362148386928e-01
2.541215838816547890e-01
2.708265780720763849e-01
1.621809052110657623e-01
3.262350692156252840e-01
2.662054280340886425e-01
1.518301440297565863e-01
3.364745797409571804e-01
1.711976698713685296e-01
2.896882168361233356e-01
3.016080168353154067e-01
2.454457519141560740e-01
7.156946962239363330e-02
2.884797312795104873e-01
1.501379203895276682e-01
2.169179480672890903e-01
2.709062739981881740e-01
1.996047161871866149e-01
2.962280361699925479e-01
3.556117155855476053e-01
1.994326822136793798e-01
8.371905280051872289e-02
1.750361209685380448e-01
1.970905524628407957e-01
2.593950673200736134e-01
3.115388573519249360e-01
2.951411172433923702e-01
2.379872044235820661e-01
4.122366821045757579e-01
3.442926691350149948e-01
2.312827341106948875e-01
2.776674821467589593e-01
2.183675441360529712e-01
3.652026347753692948e-01
2.993576183097454990e-01
2.188045569445896121e-01
2.025024924072000854e-01
2.466622272883914890e-01
1.861611867245704932e-01
3.530984620936524210e-01
2.274025134504127355e-01
2.626641173268914886e-01
2.186150262800177768e-01
2.390562221027244805e-01
1.784442342936399806e-01
2.117111138826627825e-01
1.867377685403374121e-01
2.292524096101319353e-01
2.919076674514671788e-01
2.502197199062760613e-01
2.078940026813360098e-01
4.119111222219435930e-01
3.389241169482785643e-01
2.991405783878353652e-01
2.186771243755185612e-01
1.529346607854915607e-01
2.394505551188795822e-01
3.473245529630539785e-01
2.377486223297702317e-01
1.372790637028740157e-01
3.623882965501923903e-01
3.770777322371041684e-01
4.105628653906574499e-01
2.114389543174812203e-01
2.105552195502060076e-01
2.794575052256697001e-01
1.861122364358834824e-01
3.464450659453765513e-01
2.919406381036627751e-01
3.005451685055569588e-01
2.594367357514075767e-01
2.612430418838871948e-01
3.910277556058558979e-01
2.746554211568024706e-01
2.979843806445868770e-01
4.003715971985532529e-01
3.026108909445654471e-01
2.341199292884635907e-01
3.472583082541599309e-01
3.093595581084458979e-01
2.190395992441842576e-01
1.246977268322915222e-01
2.724896742663608928e-01
3.022731946282001814e-01
2.372220021700255366e-01
1.227965542326784343e-01
1.600750313979383277e-01
1.437966329041036051e-01
2.612416259642759142e-01
2.500892532275874602e-01
1.430619740181229282e-01
3.273905590038024838e-01
3.448038153365038938e-01
1.111756139540165389e-01
1.963673220520296692e-01
1.208259005386488338e-01
1.905166499696617777e-01
7.729028184648856215e-02
9.286850915249655891e-02
7.425940938765096533e-02
-3.023590597371561550e-03
2.203145317827996941e-01
-9.268899106219752326e-03
2.181874192056895145e-01
1.188888243183174875e-01
1.010044720068248303e-02
1.574651921068759286e-01
6.147397813460886429e-02
2.360737942476623941e-01
1.494342094150145073e-01
1.998296447875640980e-01
1.727702484837803087e-01
1.200633278522924563e-01
1.148396037922827517e-01
1.735810635002580371e-01
2.295591580126233322e-01
1.705888253611167471e-01
1.454048117307880084e-01
1.950707462028214989e-01
1.683848486948669176e-01
1.957367330949019713e-01
1.541483043202700465e-01
1.102514244018324430e-01
1.607531547242175840e-01
1.345065961784147612e-01
1.608475155065172135e-01
1.721834518329016239e-01
1.581373483556381965e-01
1.686664139966643772e-01
1.315495536988634528e-01
5.883005568788668427e-02
1.855943140541134184e-01
2.603450467991918482e-01
5.071523044798043056e-02
1.176773046575229076e-01
9.284565220417451137e-02
1.270179098671054829e-01
1.823713825059177784e-01
9.615272970344201919e-02
1.845548283675226831e-01
3.325850544769266559e-01
1.422159633349912022e-01
1.626196373493844494e-01
3.147867697353801120e-02
2.292390595341655679e-01
6.331497424176946165e-02
5.051679972805500629e-02
2.050943293176276105e-01
8.114774669302626808e-02
8.547155406536988131e-02
8.166394974548196739e-02
1.368358815370344095e-01
1.528799456862662831e-01
1.623321049678186911e-01
6.500780472997291781e-03
1.917837949592602342e-01
6.740313249751717084e-02
1.477930599354364549e-01
1.061003589565904237e-01
7.484296965432701843e-02
9.985080269573820555e-02
9.468452443401287333e-02
-9.011171785761817876e-02
2.506112210839061549e-01
2.023705086713733503e-01
-1.635586940113908927e-02
2.387538225884436871e-01
3.958237714642509619e-02
1.475735927320124263e-01
6.591439642530794174e-02
6.158300378163816813e-02
7.527189150980972965e-02
1.422782637036805742e-01
5.779299728661413393e-02
1.448027433985670243e-01
1.606469609116645270e-02
6.815983924318136378e-02
9.272186056055820025e-02
2.057306830772210882e-01
2.933525100834715738e-01
7.365329557467126254e-02
9.467259027044028219e-02
1.833220699453064206e-01
1.238837765682067049e-01
6.224949635171916906e-02
8.283632940151286483e-02
1.307407614179811883e-02
1.976767422891096970e-01
3.733713660096404929e-02
1.032441500303080684e-01
6.575389206612769488e-02
4.093053284142700310e-02
-5.608631106121064747e-02
5.962600357071645707e-02
1.561186546028106026e-01
1.220372179302918747e-01
-6.739079378632584216e-02
1.575938383241578533e-01
6.674503428825284690e-02
6.415279283323471748e-02
-3.042078435598027930e-02
4.735151624799283088e-02
1.815045376110000497e-01
-6.877202126755532774e-02
-9.804753067520532994e-02
5.963419566579808428e-02
9.576861151874171973e-03
8.012757816085169793e-02
-3.923102731598127058e-03
8.452491210712642644e-02
7.683840190306268081e-02
2.530224274125225659e-02
1.494666743768650052e-01
3.136863995707572794e-02
1.758203369645529035e-01
1.807969834265096276e-01
-5.350034009186155348e-02
2.316499624144139902e-01
6.142765740582634137e-02
1.637280984443151288e-01
1.710705407100608921e-01
-2.689231798936875251e-04
2.569281345585903709e-01
1.852486279226849275e-01
3.785354192722700795e-02
2.372891571114461584e-01
5.892128122583839556e-02
7.104831086263030393e-02
-4.624689835512107994e-02
1.872081565496180877e-01
8.626426557044153398e-02
6.988361762165995472e-03
8.726228510843436759e-02
1.949536295938814057e-02
-1.407229795298070574e-02
1.136489183484751253e-01
1.829965100661677946e-01
-8.591281464152333847e-03
5.691492618754079302e-02
-5.456045772248363512e-02
1.166274018621686892e-01
7.587921896137128641e-02
-7.178600388642042418e-03
9.091262145784895221e-02
7.093958862918592345e-02
1.462197733645395070e-01
1.692119467705824887e-01
-3.830956848645272750e-02
8.280922469551998955e-02
1.218894568283683810e-01
1.530273022397964366e-01
1.708884941754849063e-01
8.957690560434317106e-02
1.432088248883729431e-01
1.165960494010650494e-01
1.623579960330538974e-01
9.402066141824716450e-02
-4.638343325017113550e-03
-3.260008360186406051e-02
5.096271259675766441e-02
1.217808357328371560e-01
4.086894043169075896e-02
6.883816484280447234e-02
1.336224568592514483e-01
2.353040408367438885e-01
1.438081625224667537e-01
1.709437149655113064e-02
1.490252115426697888e-01
1.856568166964549516e-01
6.199392325547714577e-02
4.668896801361499538e-02
4.016330785203403586e-02
1.942011706149779915e-01
7.486228681658269046e-02
8.753909696461170675e-03
1.024133098885859905e-01
3.905484675617076906e-02
-8.821873733740770440e-03
1.270264053727460096e-01
1.623005502323637828e-02
6.608946450594799238e-02
1.937116676916239566e-02
2.017285923755910981e-01
2.430037999972589624e-02
8.547479045027106537e-02
2.146620881415040039e-01
7.534420443514266985e-02
2.243107565359752642e-01
1.057887559776389264e-01
5.148336567362932215e-02
8.285746704511987026e-03
2.097024326808138994e-02
1.297232224466501327e-01
4.894755863884714397e-02
2.115303821302517706e-01
-1.205441329484568946e-02
1.146792005777719226e-03
1.898867689711761786e-01
3.792423666185684716e-02
1.739816670084468608e-01
1.236788730855420404e-01
-3.967876066782571876e-02
2.189392713790103695e-01
1.048164252306846844e-01
4.195049909855208536e-02
1.407301602344080971e-01
6.216494585147769314e-02
1.644793437935688774e-01
1.821831666172976094e-01
1.395348224920641700e-01
2.158535826834961924e-02
5.747391017308578487e-02
1.190468002510065570e-01
1.689285610038827601e-01
3.607834552461685607e-01
2.750614860607034085e-01
-1.904813528718296567e-03
1.473188287263477170e-01
1.097779011481259115e-01
6.812686859564509589e-02
2.840663165583648953e-01
2.205259080309199260e-01
1.211416501334756646e-01
1.541950295997753795e-01
7.357157691210147732e-02
4.309921270574756935e-02
1.223802745014282989e-01
1.110180425660727277e-01
4.849183548885971362e-02
1.882338876117711779e-01
7.322366576761241141e-02
-6.656693209846276105e-02
-1.922805797221927016e-02
2.989722864842963013e-01
1.296387730861856546e-01
1.818979603909002263e-01
1.217921630717239134e-01
8.620267316272378633e-02
2.690625471922791778e-01
-1.761279956067163255e-02
1.015576911947189132e-01
8.404410699599007550e-02
8.456465893564613090e-02
1.636838004550190684e-01
1.745451010211243048e-01
9.852064938082805146e-02
1.327117185226563967e-01
1.489617986636847524e-01
-2.789650693474643450e-02
7.043349927144437750e-02
1.578796513770277521e-01
4.273127644160246152e-02
2.103008600879684997e-01
1.629313414626004652e-01
1.693751818246292951e-01
1.996565994491278362e-01
3.384841711761077399e-02
7.074469770285618520e-02
1.680077089846732097e-02
1.071624993246800273e-01
9.250492178013303146e-02
1.257396398116535918e-01
1.267879244187100074e-01
1.273637982760695841e-01
6.558691494444246484e-02
2.061213751624095813e-01
1.865878835652056145e-01
1.841928591797307169e-01
5.224634291288221544e-02
1.578207896641772301e-01
2.075643973169372103e-02
6.535773858918669799e-02
7.911347785140476763e-02
1.687353894039196334e-01
2.954028597205404782e-02
5.845928758762231059e-02
1.086412228397777291e-01
-3.609274743621715409e-03
1.464146642910248985e-01
1.545630670008261154e-01
1.394346968978272816e-01
1.393110063928220121e-01
8.807016715778948068e-02
1.169309138806903237e-01
9.789258885096918661e-02
1.928663649950889125e-01
2.074187601015730076e-01
6.064708233798232762e-02
6.383593073090620962e-02
2.766127247736252515e-01
1.159713263922351745e-01
3.471621270053273922e-01
1.275946939576914074e-01
1.213698151209291476e-01
5.134238074911612326e-02
6.334582101384778063e-02
9.313399368004571244e-03
1.898800939354050588e-01
1.297619579048826521e-01
6.210466822297366907e-02
1.362188449373661348e-01
5.441208980014156094e-02
9.675206733396346515e-02
1.469263161781217963e-01
4.874073355088393011e-02
8.633576940519727128e-02
5.612120331288239505e-02
-1.023657754734064174e-02
-7.291054573206667833e-02
1.897456829087480479e-01
-1.031142901705626169e-01
1.555962821985643618e-01
1.320909398548850699e-01
5.839718949514927093e-02
-1.590701345471833283e-01
7.316146653248833953e-02
1.143661816779638629e-01
-4.232268311229558932e-02
5.156639911657689979e-02
-1.175777858714455171e-02
-2.877508371795389763e-02
4.484311736336898946e-03
-3.136368424441260405e-02
-2.263096274424928334e-01
1.835312211795780968e-02
1.120669339970411515e-01
-2.039821261340313274e-02
1.111690400506468723e-01
2.219745938658364004e-01
3.384720347203995505e-02
2.111693231808097759e-01
1.847076463152120818e-01
1.203884831849000303e-01
6.492072577785545917e-02
9.165193264166648923e-02
8.462281268838001136e-02
8.237302098221854774e-02
2.438521368164620617e-01
3.118774638979455172e-01
7.086262341013171984e-03
2.108723850591340820e-01
9.223175084536250345e-02
2.846820383780427344e-01
6.107367804186769611e-02
2.485374076886603945e-01
2.988738802169665920e-02
5.429507433758262724e-02
1.211063533340319687e-01
2.242075968363119731e-01
2.160066029051518344e-01
1.814518452738522747e-02
9.671606257750764435e-02
5.509375291986107204e-02
-2.905442400855273721e-02
1.547589692931728989e-01
1.531423961042742699e-01
1.479278755084683095e-01
1.276609386695352066e-01
1.370783068326699716e-01
1.334825844416964724e-01
1.026346986976963693e-01
-3.185005189709411155e-02
8.488172330999876891e-02
7.459771252070745984e-02
1.403966105381116991e-01
5.398812365833194349e-02
-1.061816730755871241e-02
1.205954094049551673e-01
1.626753638120640444e-01
-1.356632996054868423e-01
1.095822011275690011e-01
7.939908863007771878e-02
1.112290142696021888e-01
3.123736418190925512e-02
1.275090309555380053e-01
7.972120984988562142e-03
1.044628504127927959e-01
1.527762803023903215e-01
9.586600641843112669e-02
2.741097872511838451e-01
4.809517632863913317e-02
2.320658376021597635e-01
3.814886185680044228e-02
5.863041132642687892e-02
7.491113596681042708e-02
6.968872668811088023e-02
9.137208667159191222e-02
1.487845055693614027e-01
1.095075620496298585e-01
2.905467684998305766e-01
1.443435815960799617e-01
5.384026141911468777e-02
1.802437642484759905e-01
2.596778462658111408e-01
7.974983161340409854e-02
1.295958910187535729e-01
2.355646707818555008e-01
4.328985587611300367e-02
2.072156770859839847e-01
1.632162442831754934e-01
1.285670247075176853e-01
2.040742619245305423e-01
7.700568243473870922e-04
2.319759268469143709e-01
1.436532206935731137e-01
2.050866429050495765e-01
2.787567272202862156e-02
5.096524101874766455e-02
3.740054947653248529e-02
1.945204599983564320e-01
9.968018464409500456e-02
1.771130696063455412e-01
1.200869939019830746e-01
1.065565877892366009e-01
1.395770977317845052e-02
-1.984286955866898516e-02
8.282227136504161091e-02
5.646456329411131403e-02
3.420836356242440424e-02
1.931292199560574741e-01
8.546629494346680289e-02
3.936462926874595425e-02
5.968648347481564365e-02
-1.815833232775765360e-02
-3.322632366783229152e-02
-2.779749386392693644e-03
4.591365206751896189e-02
2.022445931484917470e-02
-1.146931574710485791e-01
1.179097173930224729e-01
1.528766081583210479e-02
1.501478318122169142e-01
8.918813512600698434e-02
-5.193747062623610411e-02
4.869714351813259068e-02
1.688269183574755417e-01
8.979273188270109340e-02
-3.376862008821146510e-03
2.294375913877363393e-01
1.577067071703721624e-01
1.205650683196495265e-01
2.914831956254465006e-01
2.561110490477494506e-01
1.633194039843914869e-01
1.628709626974249591e-01
1.700126480893953129e-01
9.484957995707676837e-02
1.880639775162075145e-01
2.275736371885178078e-01
8.092231240564129457e-02
6.526449030996162026e-02
2.466156031502928503e-01
1.699562136673752333e-01
1.339239461453537450e-01
2.077492756924447237e-01
-3.637623432972403315e-02
9.980043648883807350e-02
5.941766143570881287e-02
1.572929558632863989e-01
9.496922497953730335e-02
-5.128018151810798120e-02
9.977768067183145906e-02
2.720877559718937189e-02
2.330802413102106563e-02
1.020522509415500156e-02
3.767210221718297891e-02
1.751307851684613670e-02
-4.512650309917964897e-02
7.627072013667146599e-02
1.252738029665655395e-01
1.007325147271752597e-01
1.468488452659260091e-01
1.466361542384372330e-01
9.685755318825195470e-02
8.256022549860997373e-02
1.677528437921860238e-02
1.735188642721210428e-01
1.284582013370139109e-01
1.199156678900674677e-01
1.263888379675038864e-01
1.031245050025673127e-01
2.102657655650500002e-01
2.273978611472964872e-01
2.601564263689319922e-01
3.832714608962741742e-01
3.936891747427118671e-01
2.906994853134874934e-01
2.487941944332670574e-01
1.184966151811162050e-01
1.136831026391762478e-01
2.269059309661136115e-01
2.176541240111831144e-01
2.673816508931094460e-01
2.858358088358167737e-01
2.867918565314520607e-01
2.412405781981794561e-01
3.339796320377700911e-01
1.570197849325537520e-01
1.838173376444915963e-01
3.270865412948579798e-01
7.045362552715039861e-02
2.744436403615312936e-01
9.126740992053539170e-02
1.378737490340068428e-01
1.250264219603589577e-01
7.411377216506742638e-02
1.909398070143725201e-01
9.691510011505721778e-02
1.556174198103477124e-02
-2.989082668079523497e-02
-7.122014255627306945e-02
-5.536742953993090133e-03
1.224581499627949155e-01
8.968178463487586072e-02
-6.204074966622163956e-02
5.509456201602769276e-02
1.595223179050480056e-01
-3.552506566167012991e-02
2.126910299024180051e-01
-4.628431901938734327e-03
9.374293932510580074e-02
-1.687369067108979159e-03
1.522437942013342704e-01
1.600006957460786694e-02
2.538324333032516145e-01
1.771276333307543194e-01
8.345235463438738233e-02
1.201440351433342713e-01
1.198847199783678041e-01
1.127082434650311660e-01
5.454356784989289331e-02
7.452064615791564872e-02
1.913006636937314431e-01
2.637102780548421510e-01
1.435530951043044734e-01
1.708897078202012976e-01
1.762857692596945247e-01
2.917599063510180613e-01
2.531119335930525627e-01
2.053335182313909546e-01
2.115482833724284806e-01
1.259266420529155939e-01
3.269949112074251873e-01
8.391718011027615720e-02
2.660982228500962110e-01
2.191829103162584724e-01
2.197951934828147325e-01
6.555505680192164064e-02
2.555092841267851966e-01
4.546480623270043875e-02
2.255325921659912525e-01
9.534929768261912741e-02
1.550146435336163808e-01
-7.803626807408314825e-03
2.409209853977223870e-01
1.607886537945978356e-01
2.331908851592768839e-01
8.507742332814871578e-02
1.801453579855728515e-01
1.393502475354994052e-01
6.786178861726632761e-02
1.742638391294973887e-01
1.891702135988519995e-01
3.149791322320452669e-01
-6.619808560140105769e-02
1.483110834549649093e-01
2.148670927623931304e-01
1.838004477721344454e-01
1.282086964517783478e-01
1.737716055392303227e-01
1.536963232393961931e-01
7.690161250622074007e-02
1.934389013293206228e-01
1.466506168206634930e-01
1.636857220586865891e-01
1.331031185624488300e-01
2.029759145233813733e-01
2.648025572419576146e-01
2.126731286595426873e-01
1.653084646068297969e-01
1.686180705305706518e-01
3.340601370601257725e-01
2.127668826226680188e-01
1.243681214791501066e-01
1.789036995089341442e-01
1.522033394163482267e-01
2.513965495900631342e-01
2.017283901037240645e-01
1.796486743656122709e-01
2.862031382804758883e-01
5.677930152082510951e-03
1.857331751037892831e-01
1.447458032875978962e-01
2.177091425157654525e-01
2.645424329747688708e-01
1.304797269204471810e-01
1.366041767572259147e-01
1.425782359326425164e-01
1.654116243041628964e-01
2.263117513188042107e-01
2.895071816720660163e-01
1.416774090187377100e-01
1.552429096593703761e-01
2.039823284273142301e-01
2.638232480438622574e-01
2.075060412981564184e-01
8.328992867184781268e-02
1.633290119934180940e-01
2.677287529433743374e-01
1.884694355956545442e-01
8.697687660302677592e-02
2.068232656744282139e-01
1.522052610190852695e-01
5.880740101050208057e-02
1.270076950342463595e-01
-1.167939744156643034e-02
1.836914221256484847e-01
8.565046535311438003e-02
1.057703490514828593e-01
2.312964887376950940e-01
5.266636470897456679e-02
1.073913722665816861e-01
1.358428177116283164e-01
8.942580698705770992e-02
6.611737830756503342e-02
1.211024089963116390e-01
1.496615653048248840e-01
9.041047644535837868e-02
7.689928635617682140e-02
1.298715903691473050e-01
2.122156861821024032e-01
3.641689139154602461e-02
1.085064072706265481e-01
1.877483290600699961e-01
6.189106696357815629e-02
2.027295448865304994e-01
1.581613178125469421e-01
2.000767223856956822e-01
1.978883208128223714e-01
3.069883009073920976e-01
5.065394145431445505e-02
2.293625477605477636e-01
2.942653722978564867e-01
1.593799170620867622e-01
2.793274430917258577e-01
2.687670249914583254e-01
3.093686604332619994e-01
3.933604796161974670e-01
4.484624246340911391e-01
4.079898399549358734e-01
5.894517989009878667e-01
7.100645027278584820e-01
1.310130423457043669e+00
2.874953348941910569e+00
5.016816343143275958e+00
6.365456889681692765e+00
6.800684531543167211e+00
6.764823488892509395e+00
6.764305869924243986e+00
6.727180918668656417e+00
6.682763587947233574e+00
6.804798479723289439e+00
6.912349446118772001e+00
6.963725808880900203e+00
7.107936799921045434e+00
7.044185217415796174e+00
7.265395013577636618e+00
7.171444945758281619e+00
7.124677697737080706e+00
7.233462332785215665e+00
7.232867040627138699e+00
7.230388881664223000e+00
7.168197235649631516e+00
7.068921396578409677e+00
7.226373339750264968e+00
7.556774139269727186e+00
7.251758110246527167e+00
7.196241099140781472e+00
7.275869060714859948e+00
7.281131722503569215e+00
7.168613313112430774e+00
7.378845804616201320e+00
7.269175513196890925e+00
7.328374415383470897e+00
7.296072382405036194e+00
7.276769786493181513e+00
7.210276583241294723e+00
7.417607758729745093e+00
7.566221646249797317e+00
7.242886072581558921e+00
7.321053818703367355e+00
7.346734010266339432e+00
7.224316719638243178e+00
7.279614465810258395e+00
7.366575362769500757e+00
7.282569283272168015e+00
7.320905046232319080e+00
7.321830550564415674e+00
7.213967880060292437e+00
7.256941784066686552e+00
7.480789940143248273e+00
7.247246997219101594e+00
7.309234447706716153e+00
7.127684701871175754e+00
7.447191432461054639e+00
7.277531550087720014e+00
7.226274832346341270e+00
7.308232686103493414e+00
7.297315254525227779e+00
7.372014104014029456e+00
7.388588934933290275e+00
7.297235255190187786e+00
7.366145935231281250e+00
7.281588558158266444e+00
7.398877496882892757e+00
7.228488012476019797e+00
7.345735788456475568e+00
7.190769892939370855e+00
7.308074002206652153e+00
7.346336542006537407e+00
7.222512941927677232e+00
7.327487848781315982e+00
7.206377449966600679e+00
7.286063767564584737e+00
7.293395185904486766e+00
7.190480135546135187e+00
7.319890541372227943e+00
7.237645964330297055e+00
7.321646683568278746e+00
7.317691722694623202e+00
7.275617735366352257e+00
7.348980262177117417e+00
7.387662318091055447e+00
7.167472589323635290e+00
7.254052199942140788e+00
7.289251301180702747e+00
7.378252636339492021e+00
7.414368645266748103e+00
7.406820894970723934e+00
7.302598851663795188e+00
7.163756918496065218e+00
7.212487133804000194e+00
7.199589946207279212e+00
7.189421231559767200e+00
7.353450920423672876e+00
7.202343298849501529e+00
7.266003858089518985e+00
7.237475548552774640e+00
7.246927606692300294e+00
7.160880987859060021e+00
7.199853711404498924e+00
7.234252819273883972e+00
7.216632535582054864e+00
7.221946574945930841e+00
7.349971202125125558e+00
7.290505500638693626e+00
7.358710548103856830e+00
7.267352822877582774e+00
7.233105319311249559e+00
7.332069858813143881e+00
7.255156413288712969e+00
7.118290595211046679e+00
7.356013629885592486e+00
7.215750520139978974e+00
7.344837995648384243e+00
7.353630539666561106e+00
7.255407334090924643e+00
7.180302015157511875e+00
7.347636859921983898e+00
7.254913482305760830e+00
7.281247018639063207e+00
7.213821332600909741e+00
7.162606182148302914e+00
7.382341401414407756e+00
7.389197779444087288e+00
7.233759978863122164e+00
7.278539986731756173e+00
7.263496167127213354e+00
7.140214357752457275e+00
7.274589981562541219e+00
7.189216530348035761e+00
7.272302061223919978e+00
7.175655378605009460e+00
7.240453020698432773e+00
7.411500906725756010e+00
7.264033608940005493e+00
7.088016054900937668e+00
7.244158072141718030e+00
7.324477304850127268e+00
7.130450494355907054e+00
7.280767629441720068e+00
7.324638112615522445e+00
7.235479003795990849e+00
7.228954961823563785e+00
7.327986049448091954e+00
7.244611064593030392e+00
7.233725794569315859e+00
7.364127544890172850e+00
7.333101658094763664e+00
7.261166477219581417e+00
7.333595813291807097e+00
7.381032992546378679e+00
7.341865175806461252e+00
7.347387355033799139e+00
7.285515908643265703e+00
7.328485666038437429e+00
7.275397054513789818e+00
7.108449867723720672e+00
7.385105373435951748e+00
7.312149619481357554e+00
7.290718798485278818e+00
7.295525939401620086e+00
7.186536805417039986e+00
7.291509689526921356e+00
7.274021389567269402e+00
7.301693574721587865e+00
7.319115731110263923e+00
7.127026907077048890e+00
7.266610275307157529e+00
7.340688447258418847e+00
7.226685144997047061e+00
7.247673896334942967e+00
7.130738431289593393e+00
7.238193519843933998e+00
7.190556392812450959e+00
7.270323316571167815e+00
7.217255336990469949e+00
7.250664718557109367e+00
7.302004773152068751e+00
7.271585505848487507e+00
7.241722390701638368e+00
7.260305093720059055e+00
7.306212273026242876e+00
7.184697326365775183e+00
7.214456573855721366e+00
7.323005256373599003e+00
7.306198518395124353e+00
7.346244507372877486e+00
7.326584897986827549e+00
7.400187726217930972e+00
7.368597899726091249e+00
7.386339143228452642e+00
7.278586105185335775e+00
7.201454304956444119e+00
7.304582450890133138e+00
7.216758653372838950e+00
7.266554245429029280e+00
7.271187329632296859e+00
7.327027271056265612e+00
7.229208107638832814e+00
7.342227448398761069e+00
7.185174996234891864e+00
7.269927466505329505e+00
7.165112356058126686e+00
7.212731480705949494e+00
7.112469455123404671e+00
7.174225301966875357e+00
7.199272578422752034e+00
7.058842087007136890e+00
7.129028508680455900e+00
7.093624099412540573e+00
7.052825550307169067e+00
7.132438037922836038e+00
6.986679347963907993e+00
7.141247876361302538e+00
7.031335260779218999e+00
7.107981603595879605e+00
7.025813384961124619e+00
7.094181262933493493e+00
7.121766773713045673e+00
7.099194217560136799e+00
7.027331754162636557e+00
7.225832762686992261e+00
7.081177679252981250e+00
7.232119941894382009e+00
7.085934757373907544e+00
6.991652454634443181e+00
7.058744489836597857e+00
7.146766111251380060e+00
7.232986584519063733e+00
7.019731008100579928e+00
7.199429846399284294e+00
7.188993118804412497e+00
7.197122406624831825e+00
7.039448872375420052e+00
7.108660030332091040e+00
7.173681791935314855e+00
7.261442479988059695e+00
7.233793050650283440e+00
7.146272057192406990e+00
7.182155653385409622e+00
7.117129947442834670e+00
7.213030138151501625e+00
7.149713849128036536e+00
7.257498441903579511e+00
7.234946315421750818e+00
7.299359434789231216e+00
7.087493783629792432e+00
7.112996580964952464e+00
7.094629400809355779e+00
7.269776165608488938e+00
7.037810352464599184e+00
7.114345343481924822e+00
6.945599739244600279e+00
7.088387227551849357e+00
7.122246365184667916e+00
6.985191117579014453e+00
6.997852656056736009e+00
7.022119256307949975e+00
7.032042916102787977e+00
7.037230331987475829e+00
7.027554558887788794e+00
7.128125052206486956e+00
7.056679171947380702e+00
7.057988996736505705e+00
6.801811197291844024e+00
7.084058767874751972e+00
6.997088970857525680e+00
6.987370315685044631e+00
6.855819244932460421e+00
6.808889368673826326e+00
7.006989065737177391e+00
7.062043982067178760e+00
6.882511109518942405e+00
7.049184619691966525e+00
7.130401645205211913e+00
6.931912570842488464e+00
7.067961505677849310e+00
7.096451989991527931e+00
7.082746010114704838e+00
7.160057227313378903e+00
6.981958780289551747e+00
7.015592787048025691e+00
7.089651641838193186e+00
7.135916138030448330e+00
7.146176482766087190e+00
7.458037967024282899e+00
7.202941321700105703e+00
7.081923766620416671e+00
7.110845802343823685e+00
7.182943712592103402e+00
7.180205631631608298e+00
7.044363218468839172e+00
7.050880281989198473e+00
7.118024908412562191e+00
7.175944832581857113e+00
7.077957984087823284e+00
7.079053095107175508e+00
7.074777934608531993e+00
6.947995471585303839e+00
6.923445485568564095e+00
7.124332213876740205e+00
7.004398948157540161e+00
7.106589251045296152e+00
7.027862419795219751e+00
7.048346194282956390e+00
7.035107972853801073e+00
7.012787551147816600e+00
6.869534428273408544e+00
6.903923523587855549e+00
6.922866476460568741e+00
6.961348382330695195e+00
6.939360195544352017e+00
6.899588287735607395e+00
6.987815824000773723e+00
6.683042523686409275e+00
6.907917017643602442e+00
6.776709306877526373e+00
6.912425804522301931e+00
6.832728766406395593e+00
6.970824308795116053e+00
6.759164875901280567e+00
6.956459219340606737e+00
6.949709338533562430e+00
7.018204244527541213e+00
7.014853071312864508e+00
7.013057485699706994e+00
7.043179916021227172e+00
7.118079522370067913e+00
7.003219893462789614e+00
6.925960154975332017e+00
6.980485214762400581e+00
7.018252486860537154e+00
6.987525257511070009e+00
6.970722868423214535e+00
7.125057568163866151e+00
7.007078571953416990e+00
7.126156623523965727e+00
6.925286279401679401e+00
7.027184802156182464e+00
6.957208846498228461e+00
6.907316061821291875e+00
7.102064383390801261e+00
7.183848787256850166e+00
6.811798067686657632e+00
6.976821123787539491e+00
6.933862289183401195e+00
6.996453729605046412e+00
7.007442867287607235e+00
6.999810869902828081e+00
7.153119332898203453e+00
7.182516611202603762e+00
6.964160798955852272e+00
7.021207102053368843e+00
7.024379060574323930e+00
7.127285312012907603e+00
6.940230175686725289e+00
7.004588175412560069e+00
7.089858871474321589e+00
6.953342178188492539e+00
6.998742459041459973e+00
7.246468444889966776e+00
7.036737087029719895e+00
6.953702731457759967e+00
7.092042519608724227e+00
7.004069443938740314e+00
7.074291263548710518e+00
7.037841603784133149e+00
7.099984400643136517e+00
7.054444348508820184e+00
7.022674801636490827e+00
7.051666723001923209e+00
7.062653635669408736e+00
7.081991831794056225e+00
7.037342492878697620e+00
6.914484750781340061e+00
7.069024252871864533e+00
7.059730878620099404e+00
7.148820405213740514e+00
7.197165086420707958e+00
7.258235831490021717e+00
7.043616220872832123e+00
6.922108556074144659e+00
6.952471186677700032e+00
6.995790271136199223e+00
7.004607593707916635e+00
7.242318289677874610e+00
7.111360589472391247e+00
7.146279440190775212e+00
7.107904941777750452e+00
6.986556365417696313e+00
7.089187220914655363e+00
7.063354312541214597e+00
7.050606908780616244e+00
7.036696429970770161e+00
7.143072184871151364e+00
6.979309800996905011e+00
6.950035201824968034e+00
7.050328478727204029e+00
6.914694407704647716e+00
7.065924202728623982e+00
7.033542170415933548e+00
7.115100330901145576e+00
7.075278663702032844e+00
6.973459432322067997e+00
7.046171142791403774e+00
7.105336164094348206e+00
7.089643146332010204e+00
6.912968303184582552e+00
7.141016171583122407e+00
6.854942994299610959e+00
6.924205428694313547e+00
7.167995164004168807e+00
6.795642651739731477e+00
7.040144593532851935e+00
6.827847087548944316e+00
6.916213990550481583e+00
6.823405455614848236e+00
6.922020364644023260e+00
6.874393553583005634e+00
6.865228724413244166e+00
6.869651140326028305e+00
6.928510728008489217e+00
6.826302726149640954e+00
6.900718695551145032e+00
6.851465298741947763e+00
6.908436760488022799e+00
6.976688533229743250e+00
6.967654676423973292e+00
6.932780629382119919e+00
6.862840779615662967e+00
6.850292817950874635e+00
7.036370768953095656e+00
6.899761535348939212e+00
7.046057970531136583e+00
7.031152910836261150e+00
6.977437553564533879e+00
7.133178967301939899e+00
6.907039654504022685e+00
6.981589529240752157e+00
7.058833186953720862e+00
6.866446413428937134e+00
7.151396667031727716e+00
7.061661380941873567e+00
7.081844778648756389e+00
7.085937589206228182e+00
7.011005517890025018e+00
7.011481569563782656e+00
6.880123872684037245e+00
7.173874356706710920e+00
7.059043551831403640e+00
7.096103775432366589e+00
6.996731350563688778e+00
7.134026798450438633e+00
7.068141226060751237e+00
7.054817847309387879e+00
7.099876184092668296e+00
6.987193831690231782e+00
7.221715476987784044e+00
7.054790944874873126e+00
6.922255305805395054e+00
7.016752726858135780e+00
6.890824365476911240e+00
7.024822343873417196e+00
6.898899545026599966e+00
7.059034044959047627e+00
6.945246164424768054e+00
6.980529007067251435e+00
7.069664652110047243e+00
6.901244405477581445e+00
6.955663069179928826e+00
7.038249691424105059e+00
6.987731475777603229e+00
6.974449664313841168e+00
6.953660456206709917e+00
6.920316813664130429e+00
6.942773567995319972e+00
7.001124032209874670e+00
6.943085878930504329e+00
7.071116675466535995e+00
6.987804294391033011e+00
7.018721054404060133e+00
7.157134267990031162e+00
7.081733325718581717e+00
7.114828575884825312e+00
6.984225563008775950e+00
6.985061156582601072e+00
7.040304895614649006e+00
6.989020972036827040e+00
7.031448635314775153e+00
7.168047856359331504e+00
7.096569207728904871e+00
7.075160434596467596e+00
7.039019444834092809e+00
7.099417527974466680e+00
7.003913389606692519e+00
7.019553613871524433e+00
7.029264279221255407e+00
7.179447104422749248e+00
7.142775954712935693e+00
6.974540586444880397e+00
6.981644446613323396e+00
6.915441101889864939e+00
7.092817431005571827e+00
6.935975950539954304e+00
7.060955040401013960e+00
6.936818016881335147e+00
6.949571893404351997e+00
7.009939332040791449e+00
7.089879705688357348e+00
7.098634727891538709e+00
7.039369277585048046e+00
6.930309448866148081e+00
7.004543371741618785e+00
6.957250514927465268e+00
6.846317528544132003e+00
6.982914322303768628e+00
6.876399200667705713e+00
6.790604210597879664e+00
6.999827658638204220e+00
6.911940043695861569e+00
6.950614109790000050e+00
6.913845160639096044e+00
6.936814274816025083e+00
7.005345994661693609e+00
6.974869382705582765e+00
6.918723198564341814e+00
6.992323599508876164e+00
6.839647242528701376e+00
7.017885157417733666e+00
6.847659413747646973e+00
7.018268365364780159e+00
6.836715180874408659e+00
6.925294774906467055e+00
6.966699336685889143e+00
6.896629930473736181e+00
7.011833728465401094e+00
6.976225528221158712e+00
6.824175714711996577e+00
6.999840401894607211e+00
6.941701010516911907e+00
6.885636140490700718e+00
6.915632655295550713e+00
6.968929811232204230e+00
6.908468315220452460e+00
6.840991858428632000e+00
7.031710580044999936e+00
6.945848131622416766e+00
6.857030865728065194e+00
6.903335816704836425e+00
6.956383872302940752e+00
6.844100201800369376e+00
7.006514328844806627e+00
6.894335335094842421e+00
6.863719052988081160e+00
6.911293879647607774e+00
7.111463749176015092e+00
6.895793628941192743e+00
6.840124710118496765e+00
7.016703877708914128e+00
6.935137929678716340e+00
6.963575114810066857e+00
6.955679352229152457e+00
6.930660495255765774e+00
7.098624513058138241e+00
7.051777164562508027e+00
6.924429447065426402e+00
7.013697176980405956e+00
6.960127558068949227e+00
7.034391518614656391e+00
7.000914274149896421e+00
6.903433919557104836e+00
6.977951329330973174e+00
6.836417534796656703e+00
7.048453399463375568e+00
6.916815654334235397e+00
6.855582179895710837e+00
6.936447451057824232e+00
6.991913590267570200e+00
7.024996400587345313e+00
6.992878335744513230e+00
6.882007245178379584e+00
6.886470722696954816e+00
6.899805327652627440e+00
6.831652972545340319e+00
6.858152778043239195e+00
6.806548654839415846e+00
6.864201172883557689e+00
7.056937981433724083e+00
6.934914416994766739e+00
7.080662386436470612e+00
7.022888099488435287e+00
6.889292646193687197e+00
6.904052574351283944e+00
6.891054249790423469e+00
6.904476843899143290e+00
6.909483831450361713e+00
6.764768874934067533e+00
6.915319838675531017e+00
6.888854419741989865e+00
6.913862353921937043e+00
6.930281636200429141e+00
6.867768172378066360e+00
6.815100897438190586e+00
6.921146844709609169e+00
6.919418414036862863e+00
6.810173201264069220e+00
6.902515191396595640e+00
6.772984634861971998e+00
6.990011911982111137e+00
6.962498612995185354e+00
6.894829389147525411e+00
7.062168886214028163e+00
6.862961840562009641e+00
6.997118603984888274e+00
7.060301897903948465e+00
6.852945235896949150e+00
6.939292231506380304e+00
6.940054601920396138e+00
6.987258154796855081e+00
6.926864926233095687e+00
7.004796416414235338e+00
6.956465692107767218e+00
6.910299804455720896e+00
6.996714561827073631e+00
6.798609706778336204e+00
6.908447582145413435e+00
6.942122852782251385e+00
6.976355792627516372e+00
6.894494929220876145e+00
6.920628416641682712e+00
6.824769489810910805e+00
6.768646769447721034e+00
6.901846170397615943e+00
6.750672000701976039e+00
7.013023200271712554e+00
6.689574454340177390e+00
6.961013416714632029e+00
6.811031348382024397e+00
6.951328945835802742e+00
6.894647544894835889e+00
7.020632441837620696e+00
7.005779366548576803e+00
6.900075970161987371e+00
6.905033805147374970e+00
6.875740091086995243e+00
7.049760695825615819e+00
6.911098179632412020e+00
6.902006169070021180e+00
6.895263873539275501e+00
6.885402918656932769e+00
6.917122503878911921e+00
6.930452658802016330e+00
7.162075415380051879e+00
6.860409851611414034e+00
6.904922352216193104e+00
6.919314748651667735e+00
6.878287124328492652e+00
6.795060810805243712e+00
7.063142127195061626e+00
6.979472328092932720e+00
6.898929481569335387e+00
6.920140936488880179e+00
6.974636059733522409e+00
6.999871248668234180e+00
6.876006485845207905e+00
6.954669701945364046e+00
7.019840741703066378e+00
6.974398994696692000e+00
7.127641617529471674e+00
7.127923991927976211e+00
7.070380398389619181e+00
7.082510866680303607e+00
7.070119161615466830e+00
7.115543715337380171e+00
7.044391132270766853e+00
6.980195760779955627e+00
6.923493222212999676e+00
7.327998691571004031e+00
7.074875936322735370e+00
7.209514516232164105e+00
6.903917657642505645e+00
6.926283590979166682e+00
6.883539874694204030e+00
7.012162929277054424e+00
6.995699045593661403e+00
6.895385136753061417e+00
6.872850102418245122e+00
6.937746251913726958e+00
6.942217112431214865e+00
6.884534758980317193e+00
7.043839025600162174e+00
6.931207747356125992e+00
6.846902605865306413e+00
7.085592105344876046e+00
6.931625645284134940e+00
6.891219305309987497e+00
6.772704283204892484e+00
7.011907153903279344e+00
7.014559167304296849e+00
6.974538664843545455e+00
7.018752912547277845e+00
6.883255376419540106e+00
7.132336091867192529e+00
7.112569277305996529e+00
6.907258818299140124e+00
6.984755419548841715e+00
6.880763260553401039e+00
7.129030430280938191e+00
6.881421763308265049e+00
6.836769895972938826e+00
7.010106814850953327e+00
6.805463758656416395e+00
6.849062486814440298e+00
6.861561093641140197e+00
6.904968571805972566e+00
6.966848513703625123e+00
6.918810783172182788e+00
6.953359472608776848e+00
6.954248567638584788e+00
6.992606985274570697e+00
6.923372666951174814e+00
6.783105006041370899e+00
7.176415928551953094e+00
6.983343041883033564e+00
6.860170055875290274e+00
6.806057837167909241e+00
6.828320206254489655e+00
6.829657135747280172e+00
6.781699910236251405e+00
7.003135747507291953e+00
6.937586961200585378e+00
6.874626674281334893e+00
6.850109962322767920e+00
6.762176532339585044e+00
6.879979550242066644e+00
6.892079677446360186e+00
6.840181650228923438e+00
6.723641023880835732e+00
6.777786415513289420e+00
6.796516171675465401e+00
6.707893088756880395e+00
6.818539351849683960e+00
6.851223176858183272e+00
6.775538140861087300e+00
6.738340472133319992e+00
6.746044175618901129e+00
6.797830648765141426e+00
6.855765338936000042e+00
6.744393215862622526e+00
6.714340468906605963e+00
6.820084926897817645e+00
6.823183561118574048e+00
6.810779011663302462e+00
6.851871363641420132e+00
6.795914811301964065e+00
6.771375343531280677e+00
6.833606938638569162e+00
7.038792796907116234e+00
6.949043149366975314e+00
7.042888439297905201e+00
6.955443703110071318e+00
7.030492081936007942e+00
6.997675565232497341e+00
7.024209757298555346e+00
6.981259013653532186e+00
7.071397836216990029e+00
7.124094137469782595e+00
6.948135849689711208e+00
6.986232120321735906e+00
7.158037421056469896e+00
7.109575623242663234e+00
7.151384834006218938e+00
7.004074298512788843e+00
7.050941166441223373e+00
7.065602486053952802e+00
6.961681932028778164e+00
6.992943670220258312e+00
7.000664465853405183e+00
7.258872690937010930e+00
7.031720188055887277e+00
6.998596012718673265e+00
6.899707629346889526e+00
6.995675076134116210e+00
6.945569195880287872e+00
6.840420030046756139e+00
7.091639185409704282e+00
6.936687954748322227e+00
7.000358526545451987e+00
7.090028882706861602e+00
6.994079236024524526e+00
7.011962779227816078e+00
6.940735557084196650e+00
6.958789516069512793e+00
6.914173754627078949e+00
7.072055327604824804e+00
6.962237072807764271e+00
6.888824078651869520e+00
7.120520766346485786e+00
7.060742753923006987e+00
7.110261736389361431e+00
7.108155559168237936e+00
7.065262463590028297e+00
7.133123645385634148e+00
7.011263214864673188e+00
7.023125670208079541e+00
7.130964067845118493e+00
7.101607446601374996e+00
7.128014104957729025e+00
7.296077540393682170e+00
7.158530261468394329e+00
7.073156506843644387e+00
7.038418994695913256e+00
7.158580425400479896e+00
7.249220280473966049e+00
7.078335123816168917e+00
7.058478499631824832e+00
7.062142691740249667e+00
7.105017582664411968e+00
7.013879223511952254e+00
7.078874082685087998e+00
7.009653721263589432e+00
7.172007166128957500e+00
7.008735498789548046e+00
7.095855989874348069e+00
6.943837124281469819e+00
7.155699437920730155e+00
7.108584278746651997e+00
7.000761456205469635e+00
7.082789600143495790e+00
7.032342180368450713e+00
7.021125990210049572e+00
7.113894677182209136e+00
7.111603621591244817e+00
7.046819430713403776e+00
7.193445167840749832e+00
6.940780563031275996e+00
7.016115361728408217e+00
6.937185953144232364e+00
6.973628735600940765e+00
6.912124011827200043e+00
6.953029462704215291e+00
6.974771785538615099e+00
7.127875345045736388e+00
7.112591729707242294e+00
6.989497327123781467e+00
6.982629014932935974e+00
7.026867434372587873e+00
6.924118552046981456e+00
7.043763071737645376e+00
7.015009125647237553e+00
6.964100217911822988e+00
7.095864991067462491e+00
7.003284621114694630e+00
7.106874457276741275e+00
6.936129274174417603e+00
7.088683558845184862e+00
6.992215079552817514e+00
6.977280386729332484e+00
7.073716805604290947e+00
7.073932733019627328e+00
6.952344158651665218e+00
7.102045774192543348e+00
7.195586844137456417e+00
6.934385571824290828e+00
7.025750882315600521e+00
7.117337480485250722e+00
7.075830365829220092e+00
7.152887223567906183e+00
7.081787029443949777e+00
7.187876566746488116e+00
7.107994245713356030e+00
7.031630782982603023e+00
7.210423434105329044e+00
7.016791563453272040e+00
7.190360389383744888e+00
7.138683144157793592e+00
7.067302598376222988e+00
7.186978571664200288e+00
7.213073627044166436e+00
7.297435506372373482e+00
7.223691693214899345e+00
7.150806431722913636e+00
7.165085251351279716e+00
7.226675233575600821e+00
7.143534077372541979e+00
7.091590639666542017e+00
7.206291584684510809e+00
7.196460970896944254e+00
7.147123529271095954e+00
7.146574962395324526e+00
6.904596084380822951e+00
7.070133219652717571e+00
6.982878620953439253e+00
6.991459181901065634e+00
6.972234056901949195e+00
6.955404765381604015e+00
7.064114559078997324e+00
7.062548756641670700e+00
7.027273600410214982e+00
6.969355698977913072e+00
7.070254685143496864e+00
7.136428497874475418e+00
7.147087625653329113e+00
7.003426111723266345e+00
6.928385318173079455e+00
6.940807971148839073e+00
7.093847713231843599e+00
7.101266412769565939e+00
7.094922293449188011e+00
6.952407065843407175e+00
7.082452611788645491e+00
7.053593382115818322e+00
7.075408220149745020e+00
7.170411022600423401e+00
7.239178088160208802e+00
7.220816065993880706e+00
7.141176473668108038e+00
7.212050727817978846e+00
7.142331356629269656e+00
7.203723717233707191e+00
7.278270355590660046e+00
7.142672693874737355e+00
7.199046335042543987e+00
7.167989702607142632e+00
7.098822033543132015e+00
7.135619604458407927e+00
7.197092874630183879e+00
7.027057369586638735e+00
7.100858729674111913e+00
7.200045568221447922e+00
7.136376210064529602e+00
7.144524107089416098e+00
7.169325418458392107e+00
7.136054594528005168e+00
7.078065189265060120e+00
7.023903008894435196e+00
7.019174552536636469e+00
7.018767071720191097e+00
7.126043350127496012e+00
6.970378497067120094e+00
7.147622539043045897e+00
7.007692574442772049e+00
7.142859089297211028e+00
7.136695701726066154e+00
7.084610773409469431e+00
7.159332884393048602e+00
7.222670715589895707e+00
7.325524476945338925e+00
7.296574426286209558e+00
7.131595971583864824e+00
7.305379005596713604e+00
7.208662538472367487e+00
7.334592315771341298e+00
7.232765094572195963e+00
7.212015835565996014e+00
7.263345574190799070e+00
7.143887348779569102e+00
6.987413804578407550e+00
7.168320926156500406e+00
7.190249543272281052e+00
7.210980091944716008e+00
7.249460379620879635e+00
7.225616936409879898e+00
7.173673903253740214e+00
7.169478640956731930e+00
7.386786472009545079e+00
7.135974089508208884e+00
7.347961812976666174e+00
7.418477233187909192e+00
7.313940451659543207e+00
7.149807198545251374e+00
7.373373384770152583e+00
7.229312784397573743e+00
7.332183233348149365e+00
7.200831301273045604e+00
7.296319561138985499e+00
7.197365438740732202e+00
7.345211191035364351e+00
7.258863285200312099e+00
7.137124623579995664e+00
7.316797166269179975e+00
7.201654758412595392e+00
7.211181253358965648e+00
7.257256724566819805e+00
7.102371637482625566e+00
7.096169211044783154e+00
7.152202121791022549e+00
7.129136219544695230e+00
7.548352059941642267e+00
7.335937538495644006e+00
7.464355183908207181e+00
7.359695116423228711e+00
7.298803889457190053e+00
7.249513476525676126e+00
7.174144291261391970e+00
7.133129106782900131e+00
7.300621927478895934e+00
7.188452238329494648e+00
7.150977353191482422e+00
7.159403579129231865e+00
7.200669785543188262e+00
7.224951050657962170e+00
7.239006762148367358e+00
7.130005390588571856e+00
7.237492236149687841e+00
7.229174732440031725e+00
7.276102181412414716e+00
7.342107196551920012e+00
7.139655171493341612e+00
7.094601790417836007e+00
7.145287994558560563e+00
7.273290978433291976e+00
7.236184231826867652e+00
7.412834296425796055e+00
7.322196160680692678e+00
7.354178499721996332e+00
7.253061765679507999e+00
7.188345134289085614e+00
7.169375885804532444e+00
7.083350809146376825e+00
7.156374223724269790e+00
7.112105362060231251e+00
7.005323238847094736e+00
7.161255801441011037e+00
7.053322638470867822e+00
6.987544271256791006e+00
6.993830439096688778e+00
7.180239917062316124e+00
6.984270265544527234e+00
7.072215124003731646e+00
7.040359914123196283e+00
6.908078634508266980e+00
7.001401349755008496e+00
7.229572099562619591e+00
7.056377783803541526e+00
7.168814474527144931e+00
7.189399689386624104e+00
7.114798234793773268e+00
7.222979689006460369e+00
7.019616116511382842e+00
7.044192297007259462e+00
7.067987801290626315e+00
7.017244859315765915e+00
6.981911751603366412e+00
6.966578781427794631e+00
7.093411206106739364e+00
7.062612472926317331e+00
7.042406825087964783e+00
7.073232561837080823e+00
7.239415052062455835e+00
7.016661703592747656e+00
7.090318134417280760e+00
6.871826191820142427e+00
7.007285093629115558e+00
7.114685568219970335e+00
6.987009863554782818e+00
7.113132205630116722e+00
7.025034326944753715e+00
7.366138046550481100e+00
7.100050847626460104e+00
7.044786881202343309e+00
6.908607783091709642e+00
7.087353203254292744e+00
7.028201026348149583e+00
6.900451087150467622e+00
7.077076777741295288e+00
7.111226380730491847e+00
6.945230285923631897e+00
7.035965007464023202e+00
6.994653491691257052e+00
7.049546386603934955e+00
7.057252719655003226e+00
7.126566025943615657e+00
7.123127672665848564e+00
7.130129182230481533e+00
7.254128962896473354e+00
7.086044693247412596e+00
7.108738512613952842e+00
7.073136380587703442e+00
7.110670734261629988e+00
7.005365412959222660e+00
7.170394335002340469e+00
7.191644424243525791e+00
7.139923791261588271e+00
6.955063124725728407e+00
7.071742409846891952e+00
7.147731868095505092e+00
7.169206380254722788e+00
7.064585149359370320e+00
6.954787223095395987e+00
7.095521226535121073e+00
7.130458281904688000e+00
7.002902525676790724e+00
7.160318666358697293e+00
7.197056364187727873e+00
7.263791385916699817e+00
7.186533164487468817e+00
6.990546825368720185e+00
7.138454068936185060e+00
7.007711588191442686e+00
6.995750726585138857e+00
7.248124461495662807e+00
7.362014389219073252e+00
7.032794363726547537e+00
7.010567695981126946e+00
7.024271248570999937e+00
7.036937439346401035e+00
7.004002996954254989e+00
7.016179179151984080e+00
6.918787926217805584e+00
7.064627525748880643e+00
7.068931510275533903e+00
7.075147185652751247e+00
7.191293478988177057e+00
6.990014946088235703e+00
6.949816139165746698e+00
7.017322431363313129e+00
7.135005399691911165e+00
6.977127568779316391e+00
7.098799985687403336e+00
7.016879451472757268e+00
7.172440335732413352e+00
6.971554113111077200e+00
7.055212686004862732e+00
7.002961893072217059e+00
6.953072142503197384e+00
7.113222520935616799e+00
7.010165878837226749e+00
7.014718761427150895e+00
7.017804045575428695e+00
7.029854817939153122e+00
7.072500937056995340e+00
7.076184749740251689e+00
7.039046246133019658e+00
7.180971440704803754e+00
7.084111156818271304e+00
7.237707961287572545e+00
7.058587322998136848e+00
7.053332448757895889e+00
7.018977335462283307e+00
7.114592218807415769e+00
6.916352143639657335e+00
6.998615633290403260e+00
7.091783305573833296e+00
7.239073714818544225e+00
7.056394471398516721e+00
7.227734137564610251e+00
7.169660990894409558e+00
7.035471762501685156e+00
7.216523206524228407e+00
7.021403307755496037e+00
7.142591683166695127e+00
7.148613681260823860e+00
7.004543169461440399e+00
7.280511348381473624e+00
7.169177657358488887e+00
6.998465040356318667e+00
7.127991450276930152e+00
7.174696499070149613e+00
7.037038879721797535e+00
7.101943221310652810e+00
7.105220463410848453e+00
7.120554242682199053e+00
7.077814875284436091e+00
7.105757804085100382e+00
7.023443139133307866e+00
7.023431508382157240e+00
6.964625219880165474e+00
7.111254496805218928e+00
6.940308860243404432e+00
7.082131501938582652e+00
7.052004419315107242e+00
6.950263973628723946e+00
7.062018798964000865e+00
6.977822885388508034e+00
7.096184078181453359e+00
6.914065335801164558e+00
7.175811129519359177e+00
7.010527645745384895e+00
7.090159450525641560e+00
7.219527783374717345e+00
7.183981175540990805e+00
7.218192977758939755e+00
7.253613568939487166e+00
7.193541450230600987e+00
7.100305409358781183e+00
7.249600454311158515e+00
7.224110299099140597e+00
7.095867924037847274e+00
7.091967475983941505e+00
7.109494612537648806e+00
7.205051038715293288e+00
7.110780467866444354e+00
7.379037256882888585e+00
7.413697500393009676e+00
7.115785634950592353e+00
7.179218534886825154e+00
7.249392112171024749e+00
7.156815180878445481e+00
7.215393304391895413e+00
7.224707411719630379e+00
7.114452346388148385e+00
7.091955238413149232e+00
7.122038832137749687e+00
7.183683832873017039e+00
7.020972363162544916e+00
7.018319540665205913e+00
7.169498969483451667e+00
7.110237261246068030e+00
7.047512320037979450e+00
7.026128325459556123e+00
7.137574885332409025e+00
7.031235135190568641e+00
6.910440688242942997e+00
7.140754125712961198e+00
6.993990033224580571e+00
7.162032432169816332e+00
7.021000580378990996e+00
7.039606140352416830e+00
7.001046156749285210e+00
6.932127790296468639e+00
7.107826257226039779e+00
6.997722088236487004e+00
6.912782514585477323e+00
6.865199900380032361e+00
7.003188844413716474e+00
6.949758895643594947e+00
6.975967628970840551e+00
7.006557918874063873e+00
6.891651463549677281e+00
7.027081440182707972e+00
6.960606037034464677e+00
7.068856062104995175e+00
6.965144962725824840e+00
7.022223427376263594e+00
6.954679613366035795e+00
6.955612905243810928e+00
7.018681914398056776e+00
7.354875434525234290e+00
7.190976313476065584e+00
7.227446099495884013e+00
6.954872683828315694e+00
7.019838213279371963e+00
7.219488238825909399e+00
7.015500246728061384e+00
6.952614902300497057e+00
6.982388207829940185e+00
7.100058432898334715e+00
7.136781061322396091e+00
6.965067188404780119e+00
7.092057589016879326e+00
7.120667313802450771e+00
7.038956841056629443e+00
7.309819423888346712e+00
6.935870869237554359e+00
7.171195845424231941e+00
6.991415794143680529e+00
6.971538335745215420e+00
6.932063264913240985e+00
6.867759778010028349e+00
6.904888875884056532e+00
6.893545961112351961e+00
6.927538194983609010e+00
6.445811924870890941e+00
4.559066207932995773e+00
4.472916631662799958e-01
1.887544395542992692e-01
2.719776178331208549e-01
1.049014814154484165e-01
2.338838756237844874e-01
3.170919844931305298e-01
2.126946708319092938e-01
1.801714513184845545e-01
3.797181148921709992e-01
1.999054975078141672e-01
1.561233069032097465e-01
1.829655621540796639e-01
1.853634183727242979e-01
2.679918101821883725e-01
3.221683519987575406e-01
8.277048923720964346e-02
1.166277052750551713e-01
1.137714963454340422e-01
2.339217008476257575e-01
1.337158062749151943e-01
2.000484040358415094e-01
2.541054019638246952e-01
2.689996400037154567e-01
3.031340724435037659e-01
2.189432157213112018e-01
3.111862939029980124e-01
1.629158675059733108e-01
3.915183710024683350e-01
3.059642891779719154e-01
1.456614973405075952e-01
1.494048796944063007e-01
2.366724239210948877e-01
2.639754591674844941e-01
2.687196928921564698e-01
2.675571235216775978e-01
2.766574273125576577e-01
9.061285150215014905e-02
2.908083086803427419e-01
1.620529669521920679e-01
1.568128587049694156e-01
1.179967963196012493e-01
1.460497621330810736e-01
3.534049070869844655e-01
1.125094082024552522e-01
1.211021055838125138e-01
1.819934336796148466e-01
2.803607594376256174e-02
1.399326952975463723e-01
1.908351302604444077e-01
9.678979142307508887e-02
8.137732759426941076e-02
1.575083775910769424e-01
5.012448946023639884e-02
9.633963080702401260e-02
3.095701253476357273e-03
7.621175728893458956e-02
5.643715517880232291e-02
1.433507200456476394e-01
0.000000000000000000e+00
1.048105592891409588e-01
1.802371903334609726e-02
1.404397960201400064e-01
1.344365082638132591e-01
8.626568149137436858e-02
1.583659178883802809e-01
2.153242318291959667e-01
6.234405941178722266e-02
2.180543229739217992e-02
1.724342714995240611e-01
4.245143046632526840e-02
6.605244837439216976e-02
1.492227320254876366e-01
2.098421028331767246e-01
8.701085862279089866e-02
1.303074906712696768e-01
6.959831024671414568e-02
1.963431503157216929e-01
2.829670589415234083e-02
3.083887444134287836e-01
1.728919162462706494e-01
1.836008034123048915e-01
2.699017816969142558e-01
1.348053547633596416e-01
1.553365624790710164e-01
2.920618001806232766e-01
1.296707323669308298e-01
2.531717055383543302e-01
1.469626243473874938e-01
1.756861282162860416e-01
1.779792065437092452e-01
3.050068255596967148e-01
1.940420821720709732e-01
1.789415247304469991e-01
1.520792443630272217e-01
1.637215245445953204e-01
1.283598962096176299e-01
1.954294790079648680e-01
2.977108051560650726e-02
5.038137734865499873e-03
1.325692165454299687e-01
1.431287244117721569e-01
2.800264006332828792e-01
1.865541038180076328e-01
2.161428343952345732e-01
4.329598477752241714e-01
2.694996611391176633e-01
2.393882547492598434e-01
3.802910557779025646e-01
2.771741360488351735e-01
1.698823836850594793e-01
3.135646306916332615e-01
1.061538604119538487e-01
2.885186690122517605e-01
3.320161590728840095e-01
2.508374644699423728e-01
2.509968563199135305e-01
2.283181063633127894e-01
3.563140106443308808e-01
2.811248491742863731e-01
4.685741162365247847e-01
2.713391401941083747e-01
3.170730718798908665e-01
3.899411400902016989e-01
1.845368259877429029e-01
3.328695527514369812e-01
3.349934289401532705e-01
2.046891746509121313e-01
2.541336191776300546e-01
2.159242774226305395e-01
2.796243812113047289e-01
3.634019923138845920e-01
2.060021346826748645e-01
1.734672844205047415e-01
2.118528067637215906e-01
3.702260065126388167e-01
1.733987135612562458e-01
1.635101482947681761e-01
2.262255826248312784e-01
2.152286574021016197e-01
2.431837226348708692e-01
2.388749846701393453e-01
7.715850038672211753e-02
2.630623946813875347e-01
6.374086198794570723e-02
1.656647701224620572e-01
1.310893805256244660e-01
2.271027434910655174e-01
1.948780802956870950e-01
1.621287185370119399e-01
2.608071415774176893e-01
1.097393679635456643e-01
1.304380584952476996e-01
1.448000127013708838e-01
4.606282908843428725e-02
1.418588487236575046e-01
3.160135610499581471e-02
1.061684241326356082e-01
1.638600821805301644e-01
1.546503481969435656e-01
5.381740446675764566e-02
1.612656157075584851e-01
1.911124478084511580e-01
1.517693607123820065e-01
2.036613197110491713e-01
1.131949145264072865e-01
1.831009845454342200e-01
2.527197244563927359e-01
9.233228098364731906e-02
1.861060670817636931e-01
1.675043503126487643e-01
1.782829208399997478e-01
3.020505921794058857e-02
3.006914125516623737e-01
4.178483675514932383e-02
1.643114564359398067e-01
2.605374092995722535e-01
4.055814654642175832e-02
1.051608977214343321e-01
1.098099615661626283e-01
1.243975523355748125e-01
3.545487661210511288e-02
9.635601499423807059e-02
9.387633897596392440e-02
6.667717138803430643e-02
1.765789653100059420e-01
1.908586951711328528e-01
2.000043083208186134e-01
1.964506589056905783e-01
8.871956758325683090e-02
1.323277014778956318e-01
2.207612537368023320e-01
1.984044227279856965e-01
1.599428453917964843e-01
1.302397289084216148e-01
5.030238937241349184e-02
3.413574722435830378e-02
1.316659623424792924e-01
2.008075380678339683e-01
1.318970602989975038e-01
2.625721838291334986e-01
4.244822442541532626e-01
3.083584033227664833e-01
2.545057020583503804e-01
1.996036036792961377e-01
2.204674508664626886e-01
3.918453468002087714e-01
2.756262348529847084e-01
4.118888720889933852e-01
2.444210322244641520e-01
3.169313789995292785e-01
2.579020834975689347e-01
2.886102990952588709e-01
3.338095196715040180e-01
2.421068162715926952e-01
2.064221564831144606e-01
2.677865021495005604e-01
2.184028409369730972e-01
1.022087098164011776e-01
2.821227675683887770e-01
2.552758600199138139e-01
2.613374026664220806e-01
2.526352750953080872e-01
3.938786042756594608e-01
3.366155646667134960e-01
3.505276616729339767e-01
2.953298388183968615e-01
1.827154504466415030e-01
2.629694498141195713e-01
1.394534072365600785e-01
4.956965208885977248e-02
3.446473564589347394e-01
1.174046394078188671e-01
4.068699503728034905e-02
2.342247071842646911e-01
