2.850341800853807328e+01
4.366893217719168518e+01
3.970033348666437689e+01
3.796314708555954098e+01
3.740578007744258571e+01
3.707986975900716686e+01
3.706024979530602081e+01
3.726171007132445112e+01
3.711847505196386265e+01
3.710804186416000050e+01
3.721479789403807104e+01
3.740523363443630700e+01
3.748090208397150036e+01
3.748698678697753905e+01
3.752112941151790437e+01
3.775884860299361634e+01
3.749758108596378037e+01
3.768934343988780711e+01
3.779164671276162579e+01
3.788660956611234099e+01
3.804055478741697982e+01
3.794278497883577472e+01
3.803181321642891533e+01
3.814632726034154331e+01
3.818876908279951010e+01
3.823081394268234590e+01
3.837826040625240864e+01
3.829534832526798738e+01
3.841747282439298061e+01
3.851287754512933503e+01
3.858169285301696050e+01
3.858429025246169886e+01
3.865126628356926375e+01
3.877422152169767600e+01
3.872339969289029682e+01
3.883490258605497303e+01
3.887409487793763674e+01
3.896777652826132510e+01
3.903711643356975713e+01
3.902904580518255528e+01
3.909367333491158547e+01
3.924547556513675062e+01
3.927148708138709310e+01
3.923596606119981089e+01
3.933500635228870124e+01
3.943565613698518035e+01
3.941194902640080500e+01
3.970324542205844409e+01
3.957713066525493417e+01
3.967724472746463249e+01
3.975783611973334075e+01
3.972915741953692503e+01
3.988638635570448088e+01
3.990694173515794319e+01
3.986071556987577935e+01
4.000859358486352590e+01
4.007362434765399684e+01
4.014578091733993404e+01
4.020582633589423693e+01
4.022079753915528499e+01
4.028285538096884721e+01
4.050170919161236327e+01
4.051821969943328128e+01
4.050434957426329419e+01
4.062058850905615515e+01
4.072849699461094986e+01
4.078403676153065760e+01
4.089758879066932451e+01
4.096576157544394192e+01
4.089887201643252723e+01
4.088611621830964538e+01
4.106248481874290235e+01
4.109943854512313521e+01
4.106473602636517484e+01
4.123691219633807492e+01
4.129674876706689446e+01
4.140748635684300893e+01
4.129007524466453560e+01
4.137672686479797335e+01
4.135420153961148770e+01
4.139145453025926003e+01
4.145525162439847122e+01
4.138336438244014204e+01
4.134958746915573613e+01
4.151565375301542105e+01
4.145222722470493437e+01
4.141924130359226552e+01
4.131750692612853726e+01
4.144240278027121605e+01
4.127129845981825440e+01
4.126750430670706038e+01
4.118013916531010210e+01
4.116985282837352855e+01
4.109918165724035077e+01
4.096638862460085306e+01
4.104278455230073774e+01
4.080671763536607699e+01
4.066301698143553978e+01
4.051571807668848635e+01
4.035549578987853891e+01
4.039976900043017594e+01
4.016724015781872481e+01
4.005325192496691500e+01
3.996306041004114462e+01
3.964396571144023085e+01
3.964033954682702898e+01
3.936027117435457967e+01
3.920677227046181201e+01
3.915669309036319135e+01
3.896386980971567482e+01
3.879435505888732649e+01
3.852643010023690096e+01
3.822151328657155034e+01
3.816172819455643150e+01
3.791345485547378047e+01
3.768642462718013775e+01
3.756465875972034496e+01
3.724605437310541589e+01
3.692396430111466543e+01
3.677931993819790790e+01
3.654733915678138345e+01
3.637508632499049099e+01
3.604053617935313980e+01
3.578823546532855460e+01
3.549038428206224438e+01
3.525004058644356775e+01
3.509229605404361507e+01
3.470659659811516207e+01
3.444178362377376601e+01
3.412461841612093849e+01
3.391363872474525465e+01
3.370004899180495528e+01
3.333746853502769625e+01
3.314232577930623336e+01
3.292672190377894026e+01
3.254574503827063836e+01
3.235106741143285802e+01
3.199844843967441221e+01
3.169577089947494741e+01
3.141731556039694340e+01
3.115841545736406459e+01
3.076555499888306144e+01
3.047396429467054446e+01
3.008188926583003564e+01
2.987999177472932644e+01
2.952145770664478519e+01
2.918058933275125000e+01
2.889686890459909918e+01
2.855971104354743417e+01
2.816821229311866759e+01
2.794700583447297859e+01
2.755115961061717655e+01
2.723293135236303542e+01
2.701470024198563280e+01
2.676271001843565855e+01
2.638130979360363426e+01
2.604229374315651313e+01
2.574768581996990591e+01
2.547695238903990500e+01
2.512648611750397620e+01
2.473525487433600745e+01
2.436490123297568289e+01
2.407064587324182270e+01
2.373384441883802509e+01
2.332451026639548886e+01
2.297628943767567122e+01
2.271907377073952716e+01
2.250394908213660017e+01
2.194280349600204261e+01
2.165716935426927137e+01
2.131053212809289832e+01
2.086116725835280050e+01
2.052771485329231282e+01
2.020832513817121168e+01
1.991900819512397902e+01
1.949160835180590468e+01
1.912784944715769697e+01
1.896941981298613911e+01
1.850226515400369109e+01
1.809310971056788730e+01
1.774241416154298889e+01
1.737684338823044428e+01
1.713588265600815674e+01
1.672324253856284670e+01
1.632632851066865243e+01
1.593370885929217629e+01
1.568726458215464881e+01
1.529439148155675987e+01
1.499524341903364899e+01
1.464572834062148488e+01
1.422515888313358445e+01
1.382501332704424080e+01
1.361684756934796781e+01
1.325020181127053220e+01
1.282606575883318101e+01
1.275948325164305608e+01
1.229045118724402386e+01
1.192050654375658247e+01
1.167031554674933247e+01
1.126053841441407677e+01
1.085748031611076492e+01
1.073147903497905453e+01
1.034236074520666016e+01
9.980877118779419632e+00
9.751866527644352800e+00
9.485970780990045981e+00
9.308261003310752457e+00
8.974850974639783985e+00
8.758975445232652035e+00
8.457808790097651297e+00
8.382911105350391523e+00
8.013044843011623897e+00
7.944769100809661921e+00
7.666865059311840369e+00
7.466147735413143138e+00
7.376592169701300605e+00
7.085075194336423188e+00
6.939603935618504416e+00
6.893058278681933437e+00
6.559699728721868794e+00
6.489332979843529969e+00
6.383464224530616349e+00
6.277561284921181262e+00
6.106472438422646754e+00
6.096437022286760765e+00
6.010593587613470845e+00
5.957753874154104068e+00
5.804557167499620363e+00
5.629096170159151313e+00
5.588556936222708771e+00
5.718459069956399965e+00
5.422749664125270819e+00
5.428523168703748070e+00
5.434060619617160803e+00
5.224868524032661554e+00
5.377270698713061847e+00
5.295018940949051789e+00
5.299211371413282912e+00
5.212999697061951210e+00
5.165290661655314253e+00
5.119355973099488644e+00
5.160638159154905757e+00
5.132139078199846161e+00
5.089690479567233083e+00
5.057386828402596457e+00
5.113676020208383299e+00
5.085868210384788313e+00
5.067934503246074307e+00
5.084393431214786929e+00
4.991581457622842777e+00
5.051665813907407987e+00
4.946268862514153319e+00
5.037706384802043580e+00
5.175461297904321967e+00
5.018833722113629214e+00
5.108788070859986874e+00
4.980725213907471804e+00
5.013641653926133479e+00
5.061361612125742759e+00
5.071895228928246624e+00
4.995087471527027034e+00
5.108978815169736620e+00
5.096613709127073122e+00
4.955813056429202668e+00
5.014233406289057449e+00
5.059255637178040388e+00
5.017581848805138023e+00
5.046440673928642262e+00
5.116160753075530643e+00
5.006588564508406947e+00
5.016707519773473400e+00
5.142745614759512307e+00
4.945750434451587019e+00
4.972398405597706628e+00
4.922558717823551255e+00
5.086345071161309406e+00
5.064861760085428877e+00
5.004161985390192413e+00
5.005460482839341196e+00
5.012485355044508317e+00
5.041065244427593406e+00
5.005873829601373615e+00
4.984421567574488954e+00
4.976944815424733548e+00
5.031146135800124597e+00
5.044650448575143997e+00
4.989325901111111072e+00
5.093886348688934085e+00
5.048499316776887902e+00
5.058217769680992681e+00
5.017382305578641066e+00
5.087036544565418872e+00
5.032098845975508716e+00
5.021568364417118957e+00
5.033085234761414561e+00
5.099894693290710102e+00
5.094523005861645970e+00
5.035192018802105096e+00
5.068161252312750165e+00
5.102477630151528665e+00
5.051681287859534741e+00
5.106241846717447963e+00
5.054037779063225599e+00
5.150549443840263031e+00
5.205489165169112198e+00
5.037993613772117740e+00
5.165327374371114999e+00
5.124129334266453561e+00
5.246968467161829075e+00
5.218440966723735031e+00
5.013205652483460284e+00
5.056639729667590899e+00
5.063774436610359864e+00
5.220618850054121296e+00
5.130731858522765698e+00
5.067094459646746429e+00
5.278641630514234073e+00
5.262873973678309447e+00
5.178238114318545193e+00
5.111939599715682903e+00
5.090050426014452789e+00
5.162010789996930527e+00
5.130415299832623788e+00
5.156152633780219041e+00
5.215638158113192979e+00
5.176449911706089146e+00
5.092214554713568653e+00
5.153963220834960168e+00
5.230907513139388954e+00
5.101688964128072712e+00
5.252049385832114226e+00
5.222496457740021469e+00
5.175293815098425121e+00
5.373333841355005802e+00
5.123688882799751987e+00
5.384478628819123536e+00
5.375920216870266444e+00
5.321222212878330637e+00
5.234566850673764371e+00
5.192473242779428233e+00
5.287711087531017817e+00
5.343569435881225793e+00
5.243211330181011043e+00
5.296733819270546206e+00
5.341351906862721322e+00
5.395549282892934784e+00
5.525246816557082497e+00
5.445923985194640160e+00
5.467277942093351939e+00
5.462966574564605438e+00
5.572128753890253527e+00
5.603872814249395873e+00
5.513707696078050446e+00
5.470493086100454150e+00
5.626989183841625497e+00
5.641082619417107757e+00
5.660272043070088799e+00
5.639251433593480911e+00
5.583757987400986167e+00
5.632214121542861385e+00
5.733252878990800383e+00
5.639018312897473351e+00
5.725124905949201981e+00
5.739199226639650320e+00
5.826432182027946105e+00
5.865539518861581314e+00
5.729891895488396614e+00
5.808309146493652264e+00
5.827700742934358580e+00
5.740209180332988659e+00
5.762459008440316666e+00
5.827780641133040618e+00
5.900851893495610234e+00
5.861305824521865659e+00
5.803410577768037371e+00
5.901518487209814090e+00
5.968705490021985582e+00
6.024428820523954897e+00
5.952866733898530605e+00
5.924135240209449371e+00
5.748307014562003658e+00
5.969243943201413494e+00
5.965089843646554257e+00
5.921816270823854644e+00
5.937318139722141730e+00
5.960489123272499690e+00
6.047898158111797429e+00
6.008599571281473040e+00
5.853255322388194237e+00
6.000100526724709837e+00
5.888986302907625259e+00
5.884476504659107654e+00
5.946654193773585284e+00
5.906195060308466971e+00
5.988906788971126716e+00
5.954206394091465349e+00
5.928581726718682887e+00
6.017175378788686579e+00
5.922038974410551049e+00
5.940112756243424386e+00
6.054840401420618079e+00
5.881866968782484939e+00
5.903373035672340841e+00
5.916359931750966972e+00
6.003003562064760601e+00
5.911402804727169169e+00
5.954954908742751130e+00
5.902212590175997420e+00
5.987583209553293706e+00
5.973322897994663983e+00
5.949560566631329372e+00
5.990209028486900955e+00
5.905683206143440778e+00
6.111607971050436738e+00
6.060400911558959436e+00
6.018408946306296414e+00
5.993427611148521628e+00
5.955450277579066309e+00
5.974261145585494148e+00
6.042250366772376147e+00
5.902696833947087107e+00
5.932860325872852947e+00
5.915249852464707025e+00
6.183110993693781587e+00
6.062766505086996105e+00
6.031705726040457627e+00
5.812974493387841335e+00
5.928999523508157843e+00
5.973483200079029665e+00
5.926205716088090547e+00
5.888709592179880659e+00
5.889644299980298037e+00
5.956093913199197232e+00
5.970159232707168862e+00
5.899590614449652826e+00
5.989967614560077536e+00
5.939626995416125155e+00
5.860840796770771632e+00
5.835957665604728284e+00
5.983559576682482728e+00
5.972935947980217541e+00
5.932111710084511991e+00
5.938112671691024858e+00
5.969663459318186760e+00
5.918929923080333388e+00
5.965758763512511997e+00
5.963709829810739826e+00
6.015958397730782892e+00
5.943195410829706482e+00
5.909812729419969379e+00
6.015366645370889387e+00
5.912562441126876678e+00
5.930258172996153654e+00
5.977256822384434010e+00
5.888338318396261428e+00
5.925466607171484767e+00
5.867765239975716085e+00
6.024399389669080840e+00
6.022143732019745066e+00
5.940915985985236070e+00
6.161674509032139646e+00
5.957783305007581021e+00
5.951002071743237920e+00
5.964460266063828620e+00
6.028574424575193547e+00
5.881735895278096038e+00
6.021255041538715602e+00
5.897376928638711213e+00
6.055101132503644124e+00
6.030396811483708319e+00
5.985041030893768266e+00
5.906182721596808349e+00
5.944923335815210486e+00
6.024333549511530883e+00
5.961088663181103087e+00
5.991979329860365411e+00
5.955893662019264845e+00
5.930769218060817138e+00
5.915568332754325809e+00
5.862523918084398211e+00
5.808872074820957465e+00
5.980882885859156950e+00
5.910407617023046178e+00
5.907400410615839981e+00
5.907415783431291700e+00
5.859278635264484336e+00
5.854982741692206893e+00
5.948311727431293328e+00
5.974704732298405929e+00
5.725859868247682449e+00
5.940037712616622834e+00
5.922899144268145122e+00
5.918669697678103248e+00
5.849311183170146755e+00
5.901738156689533277e+00
5.853386699305152874e+00
5.949917984655009207e+00
5.916011009236113338e+00
5.947274770166539604e+00
5.841375673764985343e+00
5.995402310320277373e+00
5.891450808382550086e+00
5.948973466568260982e+00
5.934548301762942124e+00
5.803594849312649906e+00
5.949100090046913536e+00
5.760677986548925489e+00
5.837910519191696679e+00
5.756521560846352692e+00
5.941472542687480818e+00
5.897413135669597573e+00
5.843611913118031076e+00
5.935778936305273312e+00
5.889060031754122626e+00
5.912005378741660877e+00
5.867952747901346022e+00
5.942055496134905468e+00
5.994964589553024581e+00
5.852231512930877066e+00
5.841106548306311375e+00
6.026895247602236161e+00
5.916508299677811777e+00
5.930977054514176672e+00
6.023576438216230677e+00
5.884720143600545406e+00
5.971640990328472398e+00
6.071534169407040160e+00
5.885628454651513408e+00
5.949138117541765247e+00
5.938513780880943393e+00
6.024043690977362253e+00
5.866479283510790843e+00
6.039713244961562033e+00
5.935491302791069401e+00
5.813920629663035022e+00
6.065300795067204653e+00
6.056934341070640215e+00
6.095110813313997511e+00
5.908843432778514426e+00
6.149269656161497011e+00
6.047465291918284080e+00
6.218082840174389503e+00
6.175767135508574590e+00
6.078858103611356256e+00
6.174017971759319323e+00
6.170419012992297780e+00
6.175472118992742843e+00
6.232010815685241845e+00
6.106477090723280376e+00
6.171742187853502593e+00
6.138274652531338305e+00
6.234254539169837628e+00
6.216583585859303263e+00
6.238391849990410520e+00
6.213115093764995045e+00
6.400534727700024185e+00
6.212024938458845291e+00
6.252904498273890610e+00
6.378249703933568604e+00
6.343697980388442126e+00
6.288370196537018231e+00
6.223847040156261556e+00
6.456210624973700796e+00
6.367938183894705340e+00
6.226300926252956280e+00
6.340148679862303460e+00
6.348958417165491142e+00
6.354857938395214845e+00
6.579942594961165625e+00
6.452487773422737938e+00
6.554446270395732910e+00
6.397217435366186145e+00
6.490144098275377083e+00
6.554144174292010128e+00
6.576619740096344202e+00
6.432720857720918062e+00
6.473591315208734542e+00
6.390811217951549494e+00
6.500187908776348777e+00
6.556436746933120396e+00
6.506978143230856659e+00
6.529318286641511371e+00
6.636797041245309892e+00
6.493199951564752936e+00
6.530788514653380616e+00
6.577392628752391168e+00
6.562202666242217042e+00
6.568008231241062589e+00
6.593484631824833464e+00
6.625524416663410854e+00
6.736871660039905230e+00
6.601147678257055951e+00
6.719291022029282523e+00
6.663145242438840654e+00
6.677402317615360516e+00
6.722312387618872620e+00
6.762128593419789446e+00
6.835815264190160612e+00
6.794047721856616207e+00
6.695168440812672372e+00
6.747516729777546018e+00
6.852367238166150010e+00
6.737069382798940076e+00
6.742166483379286035e+00
6.837133382210724974e+00
6.766486281676156622e+00
6.711872625910653589e+00
6.689398981713087444e+00
6.812016826931134972e+00
6.772553386854661461e+00
6.882388228111810058e+00
6.753682544631688600e+00
6.809292399466631451e+00
6.870575734425908188e+00
6.899305913336553964e+00
6.811694098889972793e+00
6.778496498118922631e+00
6.832546517596383318e+00
6.891431389516828432e+00
6.912034809027644222e+00
7.085009354172814078e+00
7.007571715772331622e+00
6.826562142456086946e+00
6.916464102256914437e+00
6.863550356536298303e+00
6.818866024237647316e+00
6.960718299059018399e+00
7.011237829488539575e+00
6.921438422565258541e+00
6.959439725592076798e+00
7.044866779399704626e+00
6.869864539314720631e+00
7.069706623947046076e+00
7.133615474428513181e+00
7.130076489872528178e+00
6.977777171481465146e+00
6.988413543441991393e+00
7.004538820575637814e+00
6.857992779370058578e+00
7.117511638331265544e+00
7.059442739415088042e+00
7.012845401491312636e+00
7.156097614134280249e+00
7.061590281655593770e+00
7.135172680223529795e+00
7.109294765900674662e+00
7.043697130440009779e+00
7.247424492585293976e+00
7.191155730441419536e+00
7.312725088791177441e+00
7.213797565411211643e+00
7.249560606345887059e+00
7.433007883849924724e+00
7.406488862324266620e+00
7.379992900033469638e+00
7.473501302742338481e+00
7.416261018950865314e+00
7.407548069724296802e+00
7.335723633823517886e+00
7.394512830175229645e+00
7.453181673543122443e+00
7.497860645584677464e+00
7.471711380798782720e+00
7.566000459711854198e+00
7.610021131272278971e+00
7.521542168520921834e+00
7.694775118602103170e+00
7.753107883845572701e+00
7.755604045195419793e+00
7.635925644617850061e+00
7.729702060274009412e+00
7.707357871382982673e+00
7.721783137332657532e+00
7.841101288051206097e+00
7.867369186492697786e+00
7.789597593847831902e+00
7.807397193380540834e+00
7.844350919757779650e+00
7.831098842564800933e+00
7.935963510123277942e+00
7.826762797615375078e+00
7.929623840834771897e+00
7.923457318022379958e+00
7.912558495645472867e+00
7.936808408303029694e+00
8.091333650076906636e+00
8.317331775674555061e+00
8.258347890672265379e+00
8.060073530078764037e+00
8.181276165798299971e+00
8.172816058974500919e+00
8.149569222703899385e+00
8.327338772325230565e+00
8.262673012828246399e+00
8.206234441730842377e+00
8.357204921585427826e+00
8.420542348234425489e+00
8.449721271839024439e+00
8.492332599844658603e+00
8.407359145310008941e+00
8.503960316300341660e+00
8.678425114570437415e+00
8.761802324442363954e+00
8.728691195778164769e+00
8.791696488642401164e+00
8.875872275957528146e+00
8.722089278342505025e+00
8.681800156111561861e+00
8.998491334827120269e+00
8.874958402372003619e+00
8.934828449437130615e+00
9.172057834604052218e+00
8.982494097090260254e+00
9.197907733989403312e+00
9.115875544569531641e+00
9.211767138635497787e+00
9.203201040279184397e+00
9.268322118374886287e+00
9.281265222155566263e+00
9.323106189924979859e+00
9.350822673069059121e+00
9.401465792861170456e+00
9.594609171993626617e+00
9.500751138807224550e+00
9.577535836986632134e+00
9.598497888159860381e+00
9.759474252157239960e+00
9.840753173487829741e+00
9.787815660589931355e+00
9.734103438561318100e+00
9.931214825234626176e+00
1.003096438983685346e+01
1.010075395007590338e+01
1.030255667584452262e+01
1.034863882209319463e+01
1.025874121117631255e+01
1.044177767034046589e+01
1.051503359879518484e+01
1.057172187705031163e+01
1.061961902720757855e+01
1.066588979388891723e+01
1.079057518201459231e+01
1.090168242737983206e+01
1.100065141691382742e+01
1.101164055459406477e+01
1.119751451234591677e+01
1.123324124511062649e+01
1.129123540381063862e+01
1.145833490286736378e+01
1.152117180269154417e+01
1.170521457461992831e+01
1.208950408016895928e+01
1.199854534025877939e+01
1.198564805152056678e+01
1.214002563333757934e+01
1.233765554921532726e+01
1.248562832953079038e+01
1.271748086928279164e+01
1.270272832412962849e+01
1.289664115326361582e+01
1.309546023752865196e+01
1.326118225117333971e+01
1.343365788768641700e+01
1.370897181160197142e+01
1.378077096326538076e+01
1.411141165965942434e+01
1.421171717413439417e+01
1.433637373822911165e+01
1.440953075473657030e+01
1.487447627906799674e+01
1.500849246211964427e+01
1.537946465713516098e+01
1.560026666906789039e+01
1.587850375458028651e+01
1.618407310391787846e+01
1.657453469481317043e+01
1.689530644650980662e+01
1.728451009587510612e+01
1.767267476523734615e+01
1.815110053174726090e+01
1.870287689091367866e+01
1.918438875067005966e+01
1.977193715195495116e+01
2.044988247733045839e+01
2.119894529125107141e+01
2.182806341097744607e+01
2.261061520125514690e+01
2.368848712119698519e+01
2.470048368358362723e+01
2.591991690731258657e+01
2.743961080127579422e+01
2.888828743342291006e+01
3.096601472694251456e+01
3.305267949374622560e+01
3.584807759858865950e+01
3.947726206245486225e+01
4.338975097814527260e+01
4.941684516215609335e+01
5.762113008782002055e+01
6.933474408708536885e+01
8.934925015009363847e+01
1.320888969878797070e+02
2.734463535637260634e+02
5.885584243640558952e+02
9.758934852335265759e+02
1.219955295454430370e+03
1.273595956608830647e+03
1.261792051373595314e+03
1.258652199488436054e+03
1.259509740694689299e+03
1.260663426600253842e+03
1.263677966553804481e+03
1.266204640414593996e+03
1.268949172392639866e+03
1.270275454287703042e+03
1.272080530593504591e+03
1.274527317177547729e+03
1.276118729515875657e+03
1.276691891892357035e+03
1.277562643911923033e+03
1.279375611934822928e+03
1.280071003790597388e+03
1.281618692395484231e+03
1.283105837684556946e+03
1.282991789376351790e+03
1.283057531435393685e+03
1.284232038306074628e+03
1.285486852070745726e+03
1.285454390039097234e+03
1.286060142587758264e+03
1.286581268885075360e+03
1.288266367829441833e+03
1.288928195564093585e+03
1.288388079285216236e+03
1.290480368986401345e+03
1.291434449164412854e+03
1.291977929359763039e+03
1.292518118254981346e+03
1.292252956560393841e+03
1.292606121368332651e+03
1.293954790941179681e+03
1.293625205507841656e+03
1.293186937183237660e+03
1.294475137067975311e+03
1.294370901674586548e+03
1.294457772053969393e+03
1.294743801337813693e+03
1.294831073938890540e+03
1.295714400316869842e+03
1.295191655828169587e+03
1.296048600022936625e+03
1.296216006472671779e+03
1.296396892557756246e+03
1.296436744262634193e+03
1.295994866663281755e+03
1.295825055682292941e+03
1.297647583575339240e+03
1.298437490854545331e+03
1.299153008257684860e+03
1.299289602927568467e+03
1.300482153845811354e+03
1.301297395630447454e+03
1.300610072987138665e+03
1.299170041340183843e+03
1.299905132487428091e+03
1.299847115370635720e+03
1.299524127708113838e+03
1.301029165440447287e+03
1.301098208003089667e+03
1.300368337242382268e+03
1.300008944319220518e+03
1.299720542362265860e+03
1.299170959259245819e+03
1.298365960019237036e+03
1.298233941695723843e+03
1.299979383199038239e+03
1.299808023710029829e+03
1.299188358154132629e+03
1.298932729224978857e+03
1.298386254060787223e+03
1.299358758965882089e+03
1.298793702008898890e+03
1.298939195821156090e+03
1.299429525711442921e+03
1.299015604593249009e+03
1.298713873189321703e+03
1.298537137461718885e+03
1.298572482705862512e+03
1.298485148208964119e+03
1.298615980094785300e+03
1.297461862233258444e+03
1.298641843951071678e+03
1.297171723451261641e+03
1.296686144773151000e+03
1.296693589363746241e+03
1.297380802880266629e+03
1.297541951783924105e+03
1.296944721945865695e+03
1.296737672639089851e+03
1.297926883104629042e+03
1.297949771814920041e+03
1.297257833584101718e+03
1.296702807694366584e+03
1.297755681894966528e+03
1.298620406455040211e+03
1.296857352354442128e+03
1.296127414944478232e+03
1.296289873774055650e+03
1.296513863623015823e+03
1.296116213520314886e+03
1.296506250437108065e+03
1.297488466108689863e+03
1.297170756784184050e+03
1.296584488776828948e+03
1.296208054983625971e+03
1.295541443571830087e+03
1.295261809380336217e+03
1.294903756420775835e+03
1.296261043772968605e+03
1.296786813571592120e+03
1.296931017887592361e+03
1.296675222992683302e+03
1.295995280414595982e+03
1.296014334618128487e+03
1.296846910064312851e+03
1.296145079526160771e+03
1.296759440043881796e+03
1.298137059363980597e+03
1.298095796393950877e+03
1.298357157462662599e+03
1.297368529100903061e+03
1.298641107673990518e+03
1.298602230322601599e+03
1.298996517014512165e+03
1.298723465524426501e+03
1.298765888737680143e+03
1.299510483118373259e+03
1.299405071603262058e+03
1.298458200265589994e+03
1.298540784763958072e+03
1.299061009020717165e+03
1.299552162064730510e+03
1.298500498574698213e+03
1.300368538302659317e+03
1.301523010952645336e+03
1.300750685120543267e+03
1.301053976460965259e+03
1.301360264894098464e+03
1.301137156352620877e+03
1.300174256121342978e+03
1.301114739243985241e+03
1.302263685163576611e+03
1.302872726888498391e+03
1.302381899606635670e+03
1.302221959896491853e+03
1.301482435612816971e+03
1.301279295553004658e+03
1.301024063687564876e+03
1.300588699713081041e+03
1.299932570135970082e+03
1.299285087971336225e+03
1.299357475740115660e+03
1.299666940682935319e+03
1.300449565392961176e+03
1.299916074495283283e+03
1.297548858123609762e+03
1.297310549000241735e+03
1.297520958481426760e+03
1.297624401365586891e+03
1.296965739521237310e+03
1.297381181334779058e+03
1.297533995035758608e+03
1.296623841775347273e+03
1.296123994896991690e+03
1.296121076893380632e+03
1.298465849355120554e+03
1.298024087254182177e+03
1.297752843789554845e+03
1.297921184137988575e+03
1.297515030641846124e+03
1.297670347280342867e+03
1.296600184626421651e+03
1.295065243930974930e+03
1.297232022420176463e+03
1.297816140255732080e+03
1.297039849753601857e+03
1.297766616620962850e+03
1.299626898334887301e+03
1.300254864302348778e+03
1.300425873351781775e+03
1.301145772513775455e+03
1.300967210960611283e+03
1.301212564677890214e+03
1.300573864943576382e+03
1.299955176674138556e+03
1.299818245319310108e+03
1.300016713559459049e+03
1.299652690586206063e+03
1.298080012959749865e+03
1.297759024876089597e+03
1.297018542016292940e+03
1.296669281499614954e+03
1.296117899878007165e+03
1.296388572323355675e+03
1.296693597555839688e+03
1.297173661943400248e+03
1.297225668187165411e+03
1.296517049538436595e+03
1.296247305226990647e+03
1.296181329743838887e+03
1.297127807153045978e+03
1.297786447657496865e+03
1.296406959832038638e+03
1.295894299810901202e+03
1.296320694049412623e+03
1.297260036549400866e+03
1.296664954961542890e+03
1.297070738296404443e+03
1.297222227305459455e+03
1.297443457227880117e+03
1.298280802495438365e+03
1.300263303878368106e+03
1.302381135415755580e+03
1.301034121556104537e+03
1.299418327422523589e+03
1.299716547047740505e+03
1.299495550751699284e+03
1.301197466952286049e+03
1.301751959850236062e+03
1.301137348108299648e+03
1.302178255581347457e+03
1.303081592918517572e+03
1.302875861729753751e+03
1.301717747238920083e+03
1.302653983620547024e+03
1.303146695893099377e+03
1.303932235774899709e+03
1.302689835358597065e+03
1.302017079572986859e+03
1.302234346645845790e+03
1.301843220787388191e+03
1.301714225346515377e+03
1.301321358212994255e+03
1.299245815174428799e+03
1.303400100112510927e+03
1.299222375874521049e+03
1.300896384038556107e+03
1.301372036629586091e+03
1.301340976861908075e+03
1.300160232267995298e+03
1.300525765418361061e+03
1.300805057463519688e+03
1.300561099234030507e+03
1.300380162580463320e+03
1.299025511262033206e+03
1.299303824604812235e+03
1.298449784052208543e+03
1.298254325344620156e+03
1.299249209128579650e+03
1.300565218239059732e+03
1.301073747422144379e+03
1.298534640086729041e+03
1.298382842609940781e+03
1.297314239184554253e+03
1.297708734623153987e+03
1.295795482931358265e+03
1.295935032519845663e+03
1.294409849012754876e+03
1.293301519899144523e+03
1.293832255421443961e+03
1.295340730697959316e+03
1.295900180318384855e+03
1.296967141279520092e+03
1.297110543983958451e+03
1.297006960822836845e+03
1.297839252680983009e+03
1.298358034724670460e+03
1.297959588168396522e+03
1.298673846719776520e+03
1.299763921926624107e+03
1.300712830567246101e+03
1.301602089437108361e+03
1.302001809408865256e+03
1.303209439949194575e+03
1.302204837206646971e+03
1.302621827831620521e+03
1.302210449397774937e+03
1.304265392050937180e+03
1.303125961804635381e+03
1.303474476638496071e+03
1.304255952432638651e+03
1.303705725390588441e+03
1.304037018420385266e+03
1.302547575299547816e+03
1.303953447432096937e+03
1.303821646553050186e+03
1.304568721115447715e+03
1.303214003653440841e+03
1.303649935916511367e+03
1.304410017602380094e+03
1.304931749608958171e+03
1.303776664878080510e+03
1.303686105932579039e+03
1.302562133156050095e+03
1.303820383150127554e+03
1.302452986855226527e+03
1.303694765784898664e+03
1.303663414135953417e+03
1.302133868490575651e+03
1.301598795406276395e+03
1.301862890308199667e+03
1.302527465731821849e+03
1.302184730167344469e+03
1.302432481032886244e+03
1.302145318711664004e+03
1.300854543171927844e+03
1.301019214473677039e+03
1.300062035358030926e+03
1.299302365198457665e+03
1.298621613120128131e+03
1.298053382384156521e+03
1.298352258388253404e+03
1.297981577568826197e+03
1.298672850520706561e+03
1.300214249417967267e+03
1.300747499508530609e+03
1.299580375130351968e+03
1.298718617827594471e+03
1.298015653442970233e+03
1.297760556494233015e+03
1.299538864880450774e+03
1.299922328804980452e+03
1.302075508114935701e+03
1.302194157042382358e+03
1.302940481269661859e+03
1.301584077348828941e+03
1.301166340535351992e+03
1.302506614021067435e+03
1.302861236414894847e+03
1.302055671920417581e+03
1.301656984860446073e+03
1.301741271999562969e+03
1.301759419914785212e+03
1.301943560587292041e+03
1.300615463081503776e+03
1.299359620551653052e+03
1.299196010783455222e+03
1.300675174646944924e+03
1.302469520927954363e+03
1.303087903864907048e+03
1.302977518636306513e+03
1.303002210618619301e+03
1.303284876289401836e+03
1.302433907772000111e+03
1.303205772217287404e+03
1.304228745174096503e+03
1.304774809115405333e+03
1.305449975601630513e+03
1.306100991188288162e+03
1.306266975450066866e+03
1.306880283839980848e+03
1.306796879626539749e+03
1.306860453612539686e+03
1.307224356536223240e+03
1.305669346727834181e+03
1.304758833622114253e+03
1.304587762171172471e+03
1.304982616039161712e+03
1.305315322559132483e+03
1.305128633538605982e+03
1.304941484243772265e+03
1.304848700183980100e+03
1.306134840313361565e+03
1.306525111969041063e+03
1.307103350510758446e+03
1.307418067394845593e+03
1.307641284355144080e+03
1.307108835977267290e+03
1.307904616987786085e+03
1.307667600394782539e+03
1.306886315142674448e+03
1.307267849475119647e+03
1.308742087159494076e+03
1.309599241314588880e+03
1.310672160962078124e+03
1.311592860076869556e+03
1.311538666341770977e+03
1.310919722802638262e+03
1.311617863459886166e+03
1.310054082649653310e+03
1.311616016800109264e+03
1.310108211454824868e+03
1.310665798840383331e+03
1.311863070629710592e+03
1.310522664957983579e+03
1.310409815021631857e+03
1.311098006835988144e+03
1.308491949360524586e+03
1.309513685614568885e+03
1.309515082518279314e+03
1.309698515940018979e+03
1.310030048664415290e+03
1.310157090038059778e+03
1.309733331934444095e+03
1.310074085517886260e+03
1.309522163015814158e+03
1.311477925606605822e+03
1.312317047243754359e+03
1.311973512090462236e+03
1.311093566417692500e+03
1.311109997937541038e+03
1.310530134832821432e+03
1.309757286830582871e+03
1.308648761713543308e+03
1.308185531472077855e+03
1.307961955576703758e+03
1.306618409602323254e+03
1.306062242988798062e+03
1.305436972321361736e+03
1.306178647990484251e+03
1.305440485212581734e+03
1.305088982388330123e+03
1.305435274535190501e+03
1.306078420654876254e+03
1.306096821109095345e+03
1.306112883074487172e+03
1.308993860848811437e+03
1.309684442529561693e+03
1.309331793823535008e+03
1.309218435471678958e+03
1.308286826409449986e+03
1.307939997731004496e+03
1.307510793705430842e+03
1.307507418360479051e+03
1.309169092770931684e+03
1.309595565896272547e+03
1.310468074058037246e+03
1.311182255543052634e+03
1.311155601604824369e+03
1.311321689633128926e+03
1.309812632111129233e+03
1.310554896498502103e+03
1.311090346419115576e+03
1.311661312303069963e+03
1.311260563262735786e+03
1.311791172768374054e+03
1.312261074914050369e+03
1.311308569438531322e+03
1.311286253669126381e+03
1.311965384825379033e+03
1.313286692298991738e+03
1.315290825967744922e+03
1.315246019461992091e+03
1.314974626618071852e+03
1.315728206512100996e+03
1.315436624505667169e+03
1.314311161476013012e+03
1.313016102381410519e+03
1.313438480774592563e+03
1.312459841204828763e+03
1.313250907412475271e+03
1.312304436880582443e+03
1.311404366874090101e+03
1.311688454833958076e+03
1.311341561326723649e+03
1.310203907955695058e+03
1.310464736841719287e+03
1.311142138657066880e+03
1.311548843248515368e+03
1.313524805418928963e+03
1.314956983578560539e+03
1.314938928911615676e+03
1.312781734059744622e+03
1.312194298830714160e+03
1.312834934326474240e+03
1.312300905380160657e+03
1.312955847407072497e+03
1.313525583061028556e+03
1.312826920739331854e+03
1.313470453303345039e+03
1.312393780260948233e+03
1.312129230242700487e+03
1.312939009215500846e+03
1.314100071343073751e+03
1.312962846590488880e+03
1.312659649610854103e+03
1.313723673655764060e+03
1.315057557207123864e+03
1.312901181969185018e+03
1.313243706056275187e+03
1.312338441149755681e+03
1.312202129157680929e+03
1.312099075145140660e+03
1.311003141579805060e+03
1.310916452943538843e+03
1.310893170911607058e+03
1.309441027708968477e+03
1.309040992189896997e+03
1.308834133526283267e+03
1.308145389908673224e+03
1.312132084833434874e+03
1.311398394534240879e+03
1.311660789323841300e+03
1.312442417227975284e+03
1.312335037183044506e+03
1.312425367255603305e+03
1.312304075315945056e+03
1.313142694302395284e+03
1.311631640235638997e+03
1.311932134936801731e+03
1.312847796824089301e+03
1.313399913610266367e+03
1.312379749328010803e+03
1.310895092210463190e+03
1.310436029722039848e+03
1.310391693199748261e+03
1.309785384903485237e+03
1.309729671383263849e+03
1.310830638939720984e+03
1.311960720085308367e+03
1.311527781981982116e+03
1.309909947106788877e+03
1.310770216785982257e+03
1.310440355552153051e+03
1.310540690497483865e+03
1.309265480745207697e+03
1.310601165040164460e+03
1.310927836616509239e+03
1.309608593146004068e+03
1.309554312635391852e+03
1.308265173795096644e+03
1.308818844045003743e+03
1.308913559517348858e+03
1.308615488563464851e+03
1.309158488863937464e+03
1.310815508850292645e+03
1.310335858921992667e+03
1.310197112158711661e+03
1.309880929698909313e+03
1.311378555912434649e+03
1.311443965028599678e+03
1.311020590436343809e+03
1.311250322336290765e+03
1.312800753775570001e+03
1.312306449404979276e+03
1.310816257162667171e+03
1.310992431681270773e+03
1.312175436888545391e+03
1.312275129310760803e+03
1.310475873942777298e+03
1.311907451652265308e+03
1.312592639800002644e+03
1.311087307455697328e+03
1.311283511542689666e+03
1.310357178290053980e+03
1.310616067975981423e+03
1.311681682399606871e+03
1.309999907928303855e+03
1.310171770877102517e+03
1.309463074049506986e+03
1.309795465831251249e+03
1.309184506954088647e+03
1.310087432158137744e+03
1.310717710824496180e+03
1.309746818042564882e+03
1.310287422206152087e+03
1.309011919561232389e+03
1.310048829798150109e+03
1.308888466931528455e+03
1.308846382527095557e+03
1.308382654186092168e+03
1.308608216209114516e+03
1.309600101686719654e+03
1.309167460420375846e+03
1.310461980454976128e+03
1.310672497647024102e+03
1.310534337983798650e+03
1.308994107724130117e+03
1.309901196130064136e+03
1.310665094522586969e+03
1.312841950096348455e+03
1.313467027288780855e+03
1.312122177760102659e+03
1.310520670739380876e+03
1.310850716851578454e+03
1.311469405323289038e+03
1.312680322713730448e+03
1.313731007703658861e+03
1.314220923943769321e+03
1.315039822335249255e+03
1.314714217045888063e+03
1.313920817102856518e+03
1.313080874536991587e+03
1.312849675544285674e+03
1.313408857050630104e+03
1.313840314913386919e+03
1.315233866237885422e+03
1.314863721242078100e+03
1.314638631933213219e+03
1.313198897123237430e+03
1.312164945445850663e+03
1.311782586240349701e+03
1.311864105968785225e+03
1.313201617302950126e+03
1.311671385342154508e+03
1.312891368750955053e+03
1.313939760359143293e+03
1.313676651846006962e+03
1.312547793244013292e+03
1.312358969424502220e+03
1.313683294723909739e+03
1.314809267079302799e+03
1.314752910530283771e+03
1.314505707928208267e+03
1.314151360121228663e+03
1.314318959641424044e+03
1.313986229961089293e+03
1.311904618704840459e+03
1.310799339679715786e+03
1.310536292051030841e+03
1.311635318890332883e+03
1.312253752395767833e+03
1.312781923792682846e+03
1.312298610987058055e+03
1.311540503393538756e+03
1.311392179364551566e+03
1.312003592650083419e+03
1.312265546482525679e+03
1.312248388293607832e+03
1.311572818574316443e+03
1.313613437604180490e+03
1.313210207977588198e+03
1.312388849126117066e+03
1.311218093728749182e+03
1.312110288503466791e+03
1.313694375693955408e+03
1.313231132304678795e+03
1.314268648958818858e+03
1.313649758415456972e+03
1.316094055007510633e+03
1.317489013248276478e+03
1.317373096535845207e+03
1.317096742721691271e+03
1.316522316234327263e+03
1.316558122663021322e+03
1.316257670742791561e+03
1.315910111552075023e+03
1.316499386159022379e+03
1.317774993177283250e+03
1.317231498620481716e+03
1.316434806669351701e+03
1.315456178123514974e+03
1.314893282766809307e+03
1.315093780421224892e+03
1.315820296468924653e+03
1.315276112158046772e+03
1.315016070218719051e+03
1.315375992189326553e+03
1.316108357392052085e+03
1.315003558565219691e+03
1.313757715952435319e+03
1.312397337247882888e+03
1.311848153534722542e+03
1.312337167532001331e+03
1.312159327591051579e+03
1.313287047795412491e+03
1.312766487359396478e+03
1.313431098079816138e+03
1.312034798054985231e+03
1.311052463749748767e+03
1.311242231379376562e+03
1.312288765101587387e+03
1.311828861457052199e+03
1.311619545468694241e+03
1.313323234802489651e+03
1.313858547176837192e+03
1.313273203055624208e+03
1.311282270592177838e+03
1.307774458269578645e+03
1.307649288030862863e+03
1.309817265701013412e+03
1.311113773683722229e+03
1.311619966299591852e+03
1.312981737154421353e+03
1.312716029320240068e+03
1.311525906498165568e+03
1.310660038989291706e+03
1.311831445708691717e+03
1.312055457200958472e+03
1.311216446207646868e+03
1.313100830781088234e+03
1.314270806614752928e+03
1.315518657301910480e+03
1.315262703925385040e+03
1.316169145459308538e+03
1.317539236750818645e+03
1.316819056731485261e+03
1.316798269950660369e+03
1.316821906265370444e+03
1.319257727580059282e+03
1.319559043917895224e+03
1.319318267457215370e+03
1.318117179163511310e+03
1.317838144714194641e+03
1.316620698123801048e+03
1.315595517852806097e+03
1.315958287031151258e+03
1.316658181403311346e+03
1.316337628309724096e+03
1.314999057262477208e+03
1.314843110439569728e+03
1.312867098105223022e+03
1.312934549985732474e+03
1.313037750849139684e+03
1.315022391177671807e+03
1.314129266044047199e+03
1.314782555189595314e+03
1.314078919558957750e+03
1.313426992222594890e+03
1.313717181977619248e+03
1.312383468235222381e+03
1.311891990137014091e+03
1.312935491874252193e+03
1.312630871189614481e+03
1.312767470410657324e+03
1.314437275929402404e+03
1.315459758978772925e+03
1.315054577813373044e+03
1.314241269868576182e+03
1.314002894197086562e+03
1.312853115414617832e+03
1.314048117993942469e+03
1.314327087007643286e+03
1.314442354117374862e+03
1.315196758884459769e+03
1.314996179410236891e+03
1.314715946083382505e+03
1.313318127891620634e+03
1.313830712565721569e+03
1.313645189350950659e+03
1.312607615857839846e+03
1.313536677886831740e+03
1.315952784775900454e+03
1.315917103453630261e+03
1.314848679647486506e+03
1.314736174284765184e+03
1.314871491089141045e+03
1.315093847980718920e+03
1.315718515265046790e+03
1.315351294644480504e+03
1.315669290186587205e+03
1.316103026058262003e+03
1.315049250626205776e+03
1.313852419794026900e+03
1.314163558149013852e+03
1.313805427718540386e+03
1.318477119541042384e+03
1.316123870487155273e+03
1.316918221016486086e+03
1.317514560343598987e+03
1.318069655208742461e+03
1.317501607429536534e+03
1.316898932883159659e+03
1.315637999422088569e+03
1.314046181827951386e+03
1.313248182378188176e+03
1.314605159644452897e+03
1.316564537173659346e+03
1.317123499010525393e+03
1.315968323964344563e+03
1.315356629720329693e+03
1.315864234916135956e+03
1.316642157566547667e+03
1.315719582563398490e+03
1.316580689150950548e+03
1.316719101858850536e+03
1.316924093331880385e+03
1.318130296627408370e+03
1.317051794421922068e+03
1.316628674189126514e+03
1.314766303288987956e+03
1.313509652472547714e+03
1.313150083267660193e+03
1.313729513506191324e+03
1.314037050070568057e+03
1.314537758736970545e+03
1.313991729283369750e+03
1.314332074172348939e+03
1.313507522224726245e+03
1.313922051176060904e+03
1.313531979265880182e+03
1.313682161383118910e+03
1.313571260457154494e+03
1.313466596344186200e+03
1.315257863813820450e+03
1.314828549346683758e+03
1.314838039432323058e+03
1.314470038843510110e+03
1.315871441936008523e+03
1.316164790906296048e+03
1.315659407588397244e+03
1.317907703479889278e+03
1.319854383061311410e+03
1.319421318637920876e+03
1.318686238919148536e+03
1.317809828893418171e+03
1.318059546872855663e+03
1.320213602635721600e+03
1.320139517181907195e+03
1.320991615702578656e+03
1.322723268192567048e+03
1.322875554666563858e+03
1.321039628351142937e+03
1.318401862718942084e+03
1.319894085690303200e+03
1.319790339597535194e+03
1.320409999388627966e+03
1.319955593852730090e+03
1.320348143921876499e+03
1.320904582897239834e+03
1.321797731696911796e+03
1.321774565972483288e+03
1.320453320900371864e+03
1.320001043286146114e+03
1.317055862656194449e+03
1.317762390905067377e+03
1.318285540548433346e+03
1.319041127202053303e+03
1.319483048998250524e+03
1.319577041745867291e+03
1.319418163468133571e+03
1.317359048814172866e+03
1.316737830603644170e+03
1.316052607361385981e+03
1.315427656994703739e+03
1.315989492537192518e+03
1.315994750142133398e+03
1.314335532550742755e+03
1.316138447964227453e+03
1.316117469023177819e+03
1.315440224273531157e+03
1.316117811472929361e+03
1.316076723166428110e+03
1.316846095192440998e+03
1.317159374010075680e+03
1.316484228155789651e+03
1.316738657196031681e+03
1.316705427534843693e+03
1.316127008160247669e+03
1.316683286024425342e+03
1.317103125475329762e+03
1.317062897540959966e+03
1.317977854705903837e+03
1.316409604855616635e+03
1.315268319251757248e+03
1.315066173064865325e+03
1.313386006367836217e+03
1.312563312913019445e+03
1.312923582997046651e+03
1.313818484803672845e+03
1.314341511059946242e+03
1.315526203737422975e+03
1.315515642004539586e+03
1.315865512983916233e+03
1.315048831413500466e+03
1.314200888104892101e+03
1.315313642971927038e+03
1.316421369814926948e+03
1.316186119680094862e+03
1.316667322263023834e+03
1.317655526051819834e+03
1.320507593522307388e+03
1.319869928924790656e+03
1.318064769484407861e+03
1.317418554565902241e+03
1.318675039719999859e+03
1.318370280578861184e+03
1.318661451564685422e+03
1.319374405246988545e+03
1.320397032618802996e+03
1.321291364619789647e+03
1.321110942449938193e+03
1.319861248238252983e+03
1.320373792558706555e+03
1.319202539567492067e+03
1.318490713966852127e+03
1.319154079489005653e+03
1.320294318932136775e+03
1.321293066249164212e+03
1.321064745310969784e+03
1.319880682312216550e+03
1.318098860427958925e+03
1.316935238220482915e+03
1.317867051579374220e+03
1.318287645410872983e+03
1.318107538586073360e+03
1.319176822258660877e+03
1.319804710957482484e+03
1.319105929496445242e+03
1.319027639374598493e+03
1.319542730121464956e+03
1.318517189701754660e+03
1.318101529938054455e+03
1.319107458990713212e+03
1.321157613617850075e+03
1.321650540503029788e+03
1.321371716620868483e+03
1.322150037042949862e+03
1.321891328594459765e+03
1.321950367396836100e+03
1.321681938573844263e+03
1.321145054935661847e+03
1.321472189011329419e+03
1.322750262658943029e+03
1.324673701876862651e+03
1.325883269897963828e+03
1.324517622969083732e+03
1.323660416222765662e+03
1.323793105590019195e+03
1.325027013434534638e+03
1.326932299781518850e+03
1.326562369196069767e+03
1.327294661883592880e+03
1.327640193581642052e+03
1.327340662816858639e+03
1.326627352829036454e+03
1.325333094334623866e+03
1.325924064806135675e+03
1.324884671656815271e+03
1.324580463307566106e+03
1.324853863113347643e+03
1.326674190872935242e+03
1.326017980993074616e+03
1.324358850177204886e+03
1.323857925482248902e+03
1.323713244406610556e+03
1.323052052014351375e+03
1.323743692396816186e+03
1.324614781910413285e+03
1.326510193446760240e+03
1.326283603164251645e+03
1.324652599245310057e+03
1.323961533927608116e+03
1.323686202304725384e+03
1.323542164460169033e+03
1.323060531134922257e+03
1.325230940339902645e+03
1.326218627622239410e+03
1.326419712781265389e+03
1.327017058421142110e+03
1.326955730687056757e+03
1.326241984900069838e+03
1.328099572426479654e+03
1.328507620217909789e+03
1.328969250472653584e+03
1.330495631542500632e+03
1.330528960924732473e+03
1.329745665980065723e+03
1.328079839796206898e+03
1.328743309388296211e+03
1.327965925595611452e+03
1.326634071357386802e+03
1.324978647615696445e+03
1.325356235583906255e+03
1.324899716285511658e+03
1.325574458704461449e+03
1.325742537108164470e+03
1.325650217974982525e+03
1.326365645973050050e+03
1.324806549826869286e+03
1.325160410760517379e+03
1.326531762218565291e+03
1.327395937706076666e+03
1.326823857697355834e+03
1.326278002806147015e+03
1.324441128432848927e+03
1.323767626357598601e+03
1.325065217213754977e+03
1.326639709338436660e+03
1.326680280531653807e+03
1.327103849812557428e+03
1.327948306424422981e+03
1.330334521172029326e+03
1.331646312466670452e+03
1.330256254008272663e+03
1.329747086347552568e+03
1.329882502165010465e+03
1.330302879462275769e+03
1.331047514398889007e+03
1.332550845242724790e+03
1.333727693636330969e+03
1.332567912408376060e+03
1.332858667013327022e+03
1.331340633484863019e+03
1.329651981801317561e+03
1.329127722078663737e+03
1.329605587141860042e+03
1.328686574485902156e+03
1.329462066612858507e+03
1.329412282044727363e+03
1.329860310490660368e+03
1.328367722718280220e+03
1.328092976476130161e+03
1.328795639877155281e+03
1.329031012185437248e+03
1.328696040703222252e+03
1.329419139535263184e+03
1.330282560844448653e+03
1.330196186541863426e+03
1.329457212645534128e+03
1.329095953543154792e+03
1.328419552781453604e+03
1.341614740232317672e+03
1.330761181299614464e+03
1.330774705940918921e+03
1.330423146277697015e+03
1.329884668417591456e+03
1.328433405207652868e+03
1.327358047148020660e+03
1.327999615733383280e+03
1.327797185452768645e+03
1.326023925014572114e+03
1.326236655993570366e+03
1.327254939229481806e+03
1.327880078924554482e+03
1.326072344132585386e+03
1.325524605464334854e+03
1.326054492042973834e+03
1.325552334893006901e+03
1.326534120429095765e+03
1.326299486319493781e+03
1.328056405856560104e+03
1.328785480770515051e+03
1.329417328071144084e+03
1.328186987731809722e+03
1.327165165612482497e+03
1.328153039391377206e+03
1.328403806464518539e+03
1.327756233276617195e+03
1.328281258606072470e+03
1.329673860962458093e+03
1.329507422494582897e+03
1.328060219630236361e+03
1.327851350060427421e+03
1.326861016731766085e+03
1.326736792831598905e+03
1.328481319247681768e+03
1.329697310376064479e+03
1.329536560154311701e+03
1.330958332534250758e+03
1.331276597201811683e+03
1.330853467866689243e+03
1.329859720761038488e+03
1.331367047526222450e+03
1.332007161660938664e+03
1.332285970473696125e+03
1.332988029176829059e+03
1.333413254777752400e+03
1.332339951113214966e+03
1.331302543080172882e+03
1.332236245171822247e+03
1.331300533994432953e+03
1.329927800297534077e+03
1.328547621807761288e+03
1.327725992718328371e+03
1.327972244936373954e+03
1.327762218865405430e+03
1.327988587455698053e+03
1.328164140487674103e+03
1.326944946958545643e+03
1.327631057576505327e+03
1.327144329577960889e+03
1.328427580831178602e+03
1.328145601678095773e+03
1.327019585732671430e+03
1.328075101023880507e+03
1.329464298503323562e+03
1.328406442296004116e+03
1.328477684081874258e+03
1.329040841484449857e+03
1.330261099682368922e+03
1.330605264109838799e+03
1.330179116948924502e+03
1.332234624047466923e+03
1.333366562371077862e+03
1.333260497814605287e+03
1.333179129184789645e+03
1.334097954636232998e+03
1.335408339014596095e+03
1.335325267440626476e+03
1.336573514786943861e+03
1.335631999258203223e+03
1.337018530160517457e+03
1.336072971074924908e+03
1.336512887224042970e+03
1.335857851847713846e+03
1.335359798532233981e+03
1.335132707520627037e+03
1.334310914791589994e+03
1.333791833989315364e+03
1.333626365526039308e+03
1.335574388711996107e+03
1.334619205332009415e+03
1.333561593673868629e+03
1.332951045716178214e+03
1.333758010249619019e+03
1.332355672853872875e+03
1.333057676235087229e+03
1.333091419166352125e+03
1.333169337407594639e+03
1.333764080793454923e+03
1.334140970512083186e+03
1.334067512916524265e+03
1.332849077408922994e+03
1.331474435864377710e+03
1.331871009869810905e+03
1.332657143526711252e+03
1.333135929644219686e+03
1.337248693207329325e+03
1.338803764001304444e+03
1.337994617033376471e+03
1.334829971927810448e+03
1.330249252700980605e+03
1.329368949407914897e+03
1.329777233354154532e+03
1.328580699055550213e+03
1.328724385044617065e+03
1.330212943722729733e+03
1.331522999608246892e+03
1.332006754584668442e+03
1.332067656936695812e+03
1.333092724743386952e+03
1.334414023215813586e+03
1.335350559670804387e+03
1.336438002383684079e+03
1.338441719570425448e+03
1.338716076030729027e+03
1.337159064317324237e+03
1.337017869635026045e+03
1.336750402725671393e+03
1.336406606740155439e+03
1.335519207273327311e+03
1.335891804334764856e+03
1.335433739157914260e+03
1.337018569705070149e+03
1.335768953773391786e+03
1.335195098001904853e+03
1.334043729346400141e+03
1.333275473771307361e+03
1.332524299015356519e+03
1.333127179779997050e+03
1.334349587441761287e+03
1.336474789739764219e+03
1.334998583222161415e+03
1.333780000459147004e+03
1.332719421543688441e+03
1.332168399868531651e+03
1.332578350754167559e+03
1.332488891268572388e+03
1.333509297571576099e+03
1.334204263236191764e+03
1.334758567614843059e+03
1.334996293177946654e+03
1.334497569627820667e+03
1.334263213038042068e+03
1.333082432135958470e+03
1.333022471065635955e+03
1.332867381176202798e+03
1.332654354472729437e+03
1.330327929570568358e+03
1.329960395526560887e+03
1.330311023920642583e+03
1.330887087410862478e+03
1.331220216481056241e+03
1.331161731504683303e+03
1.330441930142132605e+03
1.332504424388792586e+03
1.333203360690515183e+03
1.332847167235132247e+03
1.334151803292019849e+03
1.334415745477131850e+03
1.334612246704516110e+03
1.332076319115170463e+03
1.333036961969469758e+03
1.333675031519375352e+03
1.334533797494227429e+03
1.335686922393068244e+03
1.335892711735584498e+03
1.335215028051523859e+03
1.333697288629346076e+03
1.333455641885108662e+03
1.332871464277611040e+03
1.333152308775121810e+03
1.335023390399475829e+03
1.335797160568527033e+03
1.336860971012177288e+03
1.337089384187276892e+03
1.335611181630605643e+03
1.334473510965158084e+03
1.335259631979940650e+03
1.336405508493893649e+03
1.336543667044606536e+03
1.335526584607842551e+03
1.335691165594284257e+03
1.336321343022545307e+03
1.334399569934927285e+03
1.334486889059007353e+03
1.334147810809330849e+03
1.336144254225809163e+03
1.336873226384614554e+03
1.336832150720237451e+03
1.335921119085311830e+03
1.336327031976623402e+03
1.334704152086387694e+03
1.333844073252638054e+03
1.333130583443297382e+03
1.333365351154826158e+03
1.334738046723095067e+03
1.333384149178440566e+03
1.333730164108885674e+03
1.334485670055212495e+03
1.334282181072885351e+03
1.333852468227257305e+03
1.332788334853295055e+03
1.334337620916487595e+03
1.332913760766251698e+03
1.331915854908743313e+03
1.331913007397596175e+03
1.333466611199945191e+03
1.333831194269693697e+03
1.331954274817653413e+03
1.332331184257988525e+03
1.332163745950113707e+03
1.332132234707035423e+03
1.331963835496890852e+03
1.331764241602362063e+03
1.333816970873123410e+03
1.334879525195705355e+03
1.335973823983200191e+03
1.336846248201285334e+03
1.336408682475152773e+03
1.337791653760976487e+03
1.337182016743900249e+03
1.337810017502474466e+03
1.338038115635943996e+03
1.338500238629957266e+03
1.337821030103933708e+03
1.336702863296947044e+03
1.336549379664737671e+03
1.336186808815975382e+03
1.336530814053864106e+03
1.336235319058390360e+03
1.336849669159008499e+03
1.336408502046811691e+03
1.336490216261627666e+03
1.336309676166084500e+03
1.334134060834877346e+03
1.332157919045218250e+03
1.331614198851851825e+03
1.330371164407939204e+03
1.329783053179463650e+03
1.326174700502367386e+03
1.314939340235639975e+03
1.286603596487502500e+03
1.224071001597433678e+03
8.444492461606338338e+02
1.267084509928891212e+00
2.441593909034758259e-01
1.341831601718623812e-01
2.255895322760280153e-01
1.152818757253626369e-01
1.143345258057595348e-01
1.338935039131290416e-01
1.066380030406272050e-01
1.355538693893365565e-02
3.961544892737456358e-02
1.070309201370139851e-01
1.971150276066013785e-01
2.115875245120017456e-01
1.072155962259040418e-01
2.595531443927717730e-01
1.723167503485633079e-01
2.218186406706930680e-01
1.358734622098198841e-01
2.391681807183535513e-01
3.225908010867670206e-01
1.221077103902590277e-01
1.666019052024507729e-01
2.219105741675211352e-01
2.242531084672982344e-01
1.680865957984808423e-01
2.193007348773128307e-01
3.143338784162439392e-01
2.847997618001741893e-01
2.007928732086171064e-01
2.163498617531243173e-01
2.662115973836298721e-01
2.058587224688835371e-01
2.691088679184991950e-01
2.462003347839740175e-01
1.581966146105947546e-01
2.061052943814072336e-01
1.638673640408329080e-01
3.444945385082171518e-01
1.917714562489236663e-01
2.738767676905312642e-01
2.886552039086998644e-01
2.981869579757323030e-01
2.329531121642729463e-01
3.039848365624648885e-01
3.003465355145383819e-01
2.085248950459168693e-01
2.557638458570889450e-01
3.013726711257067037e-01
1.455720922618676250e-01
3.088789552646744041e-01
2.269078525707139415e-01
3.131905250670790619e-01
2.215990723222139303e-01
1.566246428220947617e-01
2.479222926914192993e-01
2.847286625178483410e-01
2.534515515069544200e-01
2.242269139923581678e-01
1.786231455764918374e-01
2.909060069827421047e-01
3.154897727504856753e-01
2.485073700103426209e-01
2.023963997313306673e-01
3.032361196360543465e-01
2.512642624441439043e-01
1.589594907125548851e-01
2.264924830683440193e-01
1.849679728534936451e-01
3.167691553095590695e-01
5.979807799922589595e-01
2.598533188939910477e-01
2.571367801082717897e-01
2.263835585601593481e-01
2.587055155143547225e-01
1.905612513673434760e-01
2.735437236758847535e-01
5.039705356862695940e-01
3.140554483603467117e-01
9.461969564224870233e-02
3.132711312260296199e-01
2.428766708184830758e-01
2.315058422457846321e-01
2.688552164175428971e-01
2.272901502815000141e-01
2.529211892834525854e-01
1.705848810180393693e-01
2.246082003410083128e-01
3.458215565788576029e-01
2.723728610738074263e-01
2.415615869102527014e-01
1.949247044329313061e-01
3.001983698661619959e-01
1.521913041158706736e-01
2.837165849443166743e-01
2.544803166808968786e-01
2.271523006038960180e-01
2.161084478245136054e-01
2.686786312860540149e-01
1.744092740766419736e-01
2.347205817017719021e-01
1.737474338030001730e-01
1.677064219564776693e-01
1.156836928705045064e-01
2.850090141752411044e-01
1.304977292985204373e-01
2.244437516423222756e-01
4.292166676913313217e-01
1.227988803835770026e-01
0.000000000000000000e+00
1.166366053223354404e-01
8.184710878165879500e-02
1.426094872500111022e-01
5.976850554910750901e-02
9.919806474823211762e-02
1.222843966607486399e-01
7.196370149815034534e-02
3.964245249863718179e-02
1.822949229605148602e-01
1.478252214892136207e-01
9.634994677826369536e-02
1.120281985354713017e-01
4.436372813412359228e-02
2.512012541188324288e-01
1.232068668869539252e-01
1.277207106125075597e-01
2.069043775126999107e-01
5.744559182268793585e-02
1.334427364768174806e-01
1.648864200639532651e-01
2.734392491959203308e-01
3.586855712515183980e-01
2.647823298463981012e-01
3.650578066434413960e-01
1.956473280217720934e-01
1.772472783515091077e-01
2.435844272770935071e-01
3.217627927826393064e-01
2.016433339160874638e-01
2.948862520957776234e-01
1.788020568626839113e-01
2.676453149497802220e-01
2.149187737487411320e-01
1.661467888759859957e-01
1.586678117159655566e-01
2.943284817602284109e-01
1.484775548936049239e-01
1.643997490047506282e-01
2.707112819394561498e-01
2.637654988368043907e-01
1.634603889066548188e-01
1.103821944925551524e-01
9.425883896335407464e-02
2.155250898322671471e-01
2.026184964991603055e-01
1.297692397645641149e-01
1.898199174396137945e-01
2.632449468952079985e-01
8.755406524138464874e-02
1.606948998331806377e-01
1.474601170602554134e-01
1.322316213649601391e-01
2.232568082611838256e-01
1.545982626582419472e-01
7.927448789425428632e-02
1.412233040594551570e-01
1.051457271772298085e-01
3.542227005542160079e-01
4.941076591719995026e-02
2.103967379308224750e-01
1.941548498815383050e-01
1.472535953858780111e-01
2.531216427400704294e-01
2.490834461416655543e-01
2.015889222282740145e-01
4.973670000591307039e-01
4.598639988439054971e-01
3.036461288803928293e-01
2.776545366117346703e-01
2.806384815227705443e-01
1.910426633040984701e-01
3.501125955807337098e-01
2.949913334045441426e-01
8.985806635875681625e-02
2.389136189864990434e-01
2.752225972382068009e-01
2.993053304958377958e-01
1.517370980197609853e-01
2.076325636387371110e-01
1.566493202418379749e-01
8.546406993048305534e-02
1.817983404815723958e-01
1.228532920690618147e-01
2.040661709654220113e-01
1.194060387367126275e-01
1.206845110680703215e-01
1.158104174866017022e-01
1.083344744310748009e-01
2.381265711516467043e-01
1.718076268795750705e-01
6.608521674897449572e-02
1.699805876743872846e-01
6.953388599573406825e-02
7.930634603607489286e-02
1.977627087078759338e-01
1.326297975823966802e-01
2.333402644519059210e-01
1.641624816912404805e-01
2.314420248257031965e-01
9.516593636634396169e-02
1.800252072732335673e-01
1.928857832897458158e-01
3.127525008863155098e-01
1.979445529610355248e-01
7.345274098278020691e-02
2.062023858645520291e-01
1.048522277158944194e-01
1.276365646584867175e-01
1.272764159387779204e-01
1.866176178293171839e-01
1.993735170917466659e-01
1.435469257466125415e-01
1.843215053934414982e-01
1.044363525260526560e-01
2.178769287339291094e-01
1.971483016647750386e-01
2.673561643747938699e-01
4.216389808540446649e-01
4.441520684706588007e-01
2.493454920098823191e-01
2.936586516650822598e-01
2.637118962447694281e-01
2.515622119305928051e-01
2.840765313913033441e-01
2.846155913952627126e-01
